^D:\USC_STUDY\CSCI580_3D_GRAPHICS_RENDERING\CHINESEPAINTINGMAIN\CHINESEPAINTINGMAIN\CHINESE_PAINTING\SHADER.CPP
C:\PROGRAM FILES (X86)\MICROSOFT VISUAL STUDIO 10.0\VC\INCLUDE\STDIO.H
C:\PROGRAM FILES (X86)\MICROSOFT VISUAL STUDIO 10.0\VC\INCLUDE\CRTDEFS.H
C:\PROGRAM FILES (X86)\MICROSOFT VISUAL STUDIO 10.0\VC\INCLUDE\SAL.H
C:\PROGRAM FILES (X86)\MICROSOFT VISUAL STUDIO 10.0\VC\INCLUDE\CODEANALYSIS\SOURCEANNOTATIONS.H
C:\PROGRAM FILES (X86)\MICROSOFT VISUAL STUDIO 10.0\VC\INCLUDE\VADEFS.H
C:\PROGRAM FILES (X86)\MICROSOFT VISUAL STUDIO 10.0\VC\INCLUDE\SWPRINTF.INL
C:\PROGRAM FILES (X86)\MICROSOFT VISUAL STUDIO 10.0\VC\INCLUDE\STRING
C:\PROGRAM FILES (X86)\MICROSOFT VISUAL STUDIO 10.0\VC\INCLUDE\ISTREAM
C:\PROGRAM FILES (X86)\MICROSOFT VISUAL STUDIO 10.0\VC\INCLUDE\OSTREAM
C:\PROGRAM FILES (X86)\MICROSOFT VISUAL STUDIO 10.0\VC\INCLUDE\IOS
C:\PROGRAM FILES (X86)\MICROSOFT VISUAL STUDIO 10.0\VC\INCLUDE\XLOCNUM
C:\PROGRAM FILES (X86)\MICROSOFT VISUAL STUDIO 10.0\VC\INCLUDE\CLIMITS
C:\PROGRAM FILES (X86)\MICROSOFT VISUAL STUDIO 10.0\VC\INCLUDE\YVALS.H
C:\PROGRAM FILES (X86)\MICROSOFT VISUAL STUDIO 10.0\VC\INCLUDE\USE_ANSI.H
C:\PROGRAM FILES (X86)\MICROSOFT VISUAL STUDIO 10.0\VC\INCLUDE\LIMITS.H
C:\PROGRAM FILES (X86)\MICROSOFT VISUAL STUDIO 10.0\VC\INCLUDE\CMATH
C:\PROGRAM FILES (X86)\MICROSOFT VISUAL STUDIO 10.0\VC\INCLUDE\MATH.H
C:\PROGRAM FILES (X86)\MICROSOFT VISUAL STUDIO 10.0\VC\INCLUDE\CSTDIO
C:\PROGRAM FILES (X86)\MICROSOFT VISUAL STUDIO 10.0\VC\INCLUDE\CSTDLIB
C:\PROGRAM FILES (X86)\MICROSOFT VISUAL STUDIO 10.0\VC\INCLUDE\STDLIB.H
C:\PROGRAM FILES (X86)\MICROSOFT VISUAL STUDIO 10.0\VC\INCLUDE\STREAMBUF
C:\PROGRAM FILES (X86)\MICROSOFT VISUAL STUDIO 10.0\VC\INCLUDE\XIOSBASE
C:\PROGRAM FILES (X86)\MICROSOFT VISUAL STUDIO 10.0\VC\INCLUDE\XLOCALE
C:\PROGRAM FILES (X86)\MICROSOFT VISUAL STUDIO 10.0\VC\INCLUDE\CSTRING
C:\PROGRAM FILES (X86)\MICROSOFT VISUAL STUDIO 10.0\VC\INCLUDE\STRING.H
C:\PROGRAM FILES (X86)\MICROSOFT VISUAL STUDIO 10.0\VC\INCLUDE\STDEXCEPT
C:\PROGRAM FILES (X86)\MICROSOFT VISUAL STUDIO 10.0\VC\INCLUDE\EXCEPTION
C:\PROGRAM FILES (X86)\MICROSOFT VISUAL STUDIO 10.0\VC\INCLUDE\XSTDDEF
C:\PROGRAM FILES (X86)\MICROSOFT VISUAL STUDIO 10.0\VC\INCLUDE\CSTDDEF
C:\PROGRAM FILES (X86)\MICROSOFT VISUAL STUDIO 10.0\VC\INCLUDE\STDDEF.H
C:\PROGRAM FILES (X86)\MICROSOFT VISUAL STUDIO 10.0\VC\INCLUDE\EH.H
C:\PROGRAM FILES (X86)\MICROSOFT VISUAL STUDIO 10.0\VC\INCLUDE\MALLOC.H
C:\PROGRAM FILES (X86)\MICROSOFT VISUAL STUDIO 10.0\VC\INCLUDE\XSTRING
C:\PROGRAM FILES (X86)\MICROSOFT VISUAL STUDIO 10.0\VC\INCLUDE\XMEMORY
C:\PROGRAM FILES (X86)\MICROSOFT VISUAL STUDIO 10.0\VC\INCLUDE\NEW
C:\PROGRAM FILES (X86)\MICROSOFT VISUAL STUDIO 10.0\VC\INCLUDE\XUTILITY
C:\PROGRAM FILES (X86)\MICROSOFT VISUAL STUDIO 10.0\VC\INCLUDE\UTILITY
C:\PROGRAM FILES (X86)\MICROSOFT VISUAL STUDIO 10.0\VC\INCLUDE\IOSFWD
C:\PROGRAM FILES (X86)\MICROSOFT VISUAL STUDIO 10.0\VC\INCLUDE\CWCHAR
C:\PROGRAM FILES (X86)\MICROSOFT VISUAL STUDIO 10.0\VC\INCLUDE\WCHAR.H
C:\PROGRAM FILES (X86)\MICROSOFT VISUAL STUDIO 10.0\VC\INCLUDE\WTIME.INL
C:\PROGRAM FILES (X86)\MICROSOFT VISUAL STUDIO 10.0\VC\INCLUDE\CRTDBG.H
C:\PROGRAM FILES (X86)\MICROSOFT VISUAL STUDIO 10.0\VC\INCLUDE\TYPE_TRAITS
C:\PROGRAM FILES (X86)\MICROSOFT VISUAL STUDIO 10.0\VC\INCLUDE\LIMITS
C:\PROGRAM FILES (X86)\MICROSOFT VISUAL STUDIO 10.0\VC\INCLUDE\YMATH.H
C:\PROGRAM FILES (X86)\MICROSOFT VISUAL STUDIO 10.0\VC\INCLUDE\CFLOAT
C:\PROGRAM FILES (X86)\MICROSOFT VISUAL STUDIO 10.0\VC\INCLUDE\FLOAT.H
C:\PROGRAM FILES (X86)\MICROSOFT VISUAL STUDIO 10.0\VC\INCLUDE\CRTWRN.H
C:\PROGRAM FILES (X86)\MICROSOFT VISUAL STUDIO 10.0\VC\INCLUDE\XTR1COMMON
C:\PROGRAM FILES (X86)\MICROSOFT VISUAL STUDIO 10.0\VC\INCLUDE\XFWRAP
C:\PROGRAM FILES (X86)\MICROSOFT VISUAL STUDIO 10.0\VC\INCLUDE\XFWRAP1
C:\PROGRAM FILES (X86)\MICROSOFT VISUAL STUDIO 10.0\VC\INCLUDE\XXTYPE_TRAITS
C:\PROGRAM FILES (X86)\MICROSOFT VISUAL STUDIO 10.0\VC\INCLUDE\TYPEINFO
C:\PROGRAM FILES (X86)\MICROSOFT VISUAL STUDIO 10.0\VC\INCLUDE\XLOCINFO
C:\PROGRAM FILES (X86)\MICROSOFT VISUAL STUDIO 10.0\VC\INCLUDE\XLOCINFO.H
C:\PROGRAM FILES (X86)\MICROSOFT VISUAL STUDIO 10.0\VC\INCLUDE\CTYPE.H
C:\PROGRAM FILES (X86)\MICROSOFT VISUAL STUDIO 10.0\VC\INCLUDE\LOCALE.H
C:\PROGRAM FILES (X86)\MICROSOFT VISUAL STUDIO 10.0\VC\INCLUDE\XDEBUG
C:\PROGRAM FILES (X86)\MICROSOFT VISUAL STUDIO 10.0\VC\INCLUDE\SYSTEM_ERROR
C:\PROGRAM FILES (X86)\MICROSOFT VISUAL STUDIO 10.0\VC\INCLUDE\CERRNO
C:\PROGRAM FILES (X86)\MICROSOFT VISUAL STUDIO 10.0\VC\INCLUDE\ERRNO.H
C:\PROGRAM FILES (X86)\MICROSOFT VISUAL STUDIO 10.0\VC\INCLUDE\SHARE.H
C:\PROGRAM FILES (X86)\MICROSOFT VISUAL STUDIO 10.0\VC\INCLUDE\VECTOR
C:\PROGRAM FILES (X86)\MICROSOFT VISUAL STUDIO 10.0\VC\INCLUDE\MEMORY
C:\PROGRAM FILES (X86)\MICROSOFT VISUAL STUDIO 10.0\VC\INCLUDE\INTRIN.H
C:\PROGRAM FILES (X86)\MICROSOFT VISUAL STUDIO 10.0\VC\INCLUDE\SETJMP.H
C:\PROGRAM FILES (X86)\MICROSOFT VISUAL STUDIO 10.0\VC\INCLUDE\IMMINTRIN.H
C:\PROGRAM FILES (X86)\MICROSOFT VISUAL STUDIO 10.0\VC\INCLUDE\WMMINTRIN.H
C:\PROGRAM FILES (X86)\MICROSOFT VISUAL STUDIO 10.0\VC\INCLUDE\NMMINTRIN.H
C:\PROGRAM FILES (X86)\MICROSOFT VISUAL STUDIO 10.0\VC\INCLUDE\SMMINTRIN.H
C:\PROGRAM FILES (X86)\MICROSOFT VISUAL STUDIO 10.0\VC\INCLUDE\TMMINTRIN.H
C:\PROGRAM FILES (X86)\MICROSOFT VISUAL STUDIO 10.0\VC\INCLUDE\PMMINTRIN.H
C:\PROGRAM FILES (X86)\MICROSOFT VISUAL STUDIO 10.0\VC\INCLUDE\EMMINTRIN.H
C:\PROGRAM FILES (X86)\MICROSOFT VISUAL STUDIO 10.0\VC\INCLUDE\XMMINTRIN.H
C:\PROGRAM FILES (X86)\MICROSOFT VISUAL STUDIO 10.0\VC\INCLUDE\MMINTRIN.H
C:\PROGRAM FILES (X86)\MICROSOFT VISUAL STUDIO 10.0\VC\INCLUDE\MM3DNOW.H
C:\PROGRAM FILES (X86)\MICROSOFT VISUAL STUDIO 10.0\VC\INCLUDE\XXSHARED
C:\PROGRAM FILES (X86)\MICROSOFT VISUAL STUDIO 10.0\VC\INCLUDE\XFUNCTIONAL
C:\PROGRAM FILES (X86)\MICROSOFT VISUAL STUDIO 10.0\VC\INCLUDE\IOSTREAM
C:\PROGRAM FILES (X86)\MICROSOFT VISUAL STUDIO 10.0\VC\INCLUDE\FSTREAM
C:\PROGRAM FILES (X86)\MICROSOFT VISUAL STUDIO 10.0\VC\INCLUDE\ALGORITHM
D:\USC_STUDY\CSCI580_3D_GRAPHICS_RENDERING\CHINESEPAINTINGMAIN\CHINESEPAINTINGMAIN\CHINESE_PAINTING\SHADER.HPP
D:\USC_STUDY\CSCI580_3D_GRAPHICS_RENDERING\CHINESEPAINTINGMAIN\CHINESEPAINTINGMAIN\CHINESE_PAINTING\GLEW\GLEW.H
C:\PROGRAM FILES (X86)\MICROSOFT SDKS\WINDOWS\V7.0A\INCLUDE\GL\GLU.H
C:\PROGRAM FILES (X86)\MICROSOFT SDKS\WINDOWS\V7.0A\INCLUDE\GL\GL.H
D:\USC_STUDY\CSCI580_3D_GRAPHICS_RENDERING\CHINESEPAINTINGMAIN\CHINESEPAINTINGMAIN\CHINESE_PAINTING\GLUT\GLUT.H
^D:\USC_STUDY\CSCI580_3D_GRAPHICS_RENDERING\CHINESEPAINTINGMAIN\CHINESEPAINTINGMAIN\CHINESE_PAINTING\MESH.CPP
D:\USC_STUDY\CSCI580_3D_GRAPHICS_RENDERING\CHINESEPAINTINGMAIN\CHINESEPAINTINGMAIN\CHINESE_PAINTING\MESH.H
C:\PROGRAM FILES (X86)\MICROSOFT VISUAL STUDIO 10.0\VC\INCLUDE\STDIO.H
C:\PROGRAM FILES (X86)\MICROSOFT VISUAL STUDIO 10.0\VC\INCLUDE\CRTDEFS.H
C:\PROGRAM FILES (X86)\MICROSOFT VISUAL STUDIO 10.0\VC\INCLUDE\SAL.H
C:\PROGRAM FILES (X86)\MICROSOFT VISUAL STUDIO 10.0\VC\INCLUDE\CODEANALYSIS\SOURCEANNOTATIONS.H
C:\PROGRAM FILES (X86)\MICROSOFT VISUAL STUDIO 10.0\VC\INCLUDE\VADEFS.H
C:\PROGRAM FILES (X86)\MICROSOFT VISUAL STUDIO 10.0\VC\INCLUDE\SWPRINTF.INL
^D:\USC_STUDY\CSCI580_3D_GRAPHICS_RENDERING\CHINESEPAINTINGMAIN\CHINESEPAINTINGMAIN\CHINESE_PAINTING\INPUT.CPP
D:\USC_STUDY\CSCI580_3D_GRAPHICS_RENDERING\CHINESEPAINTINGMAIN\CHINESEPAINTINGMAIN\CHINESE_PAINTING\CHINESE_PAINTING.H
C:\PROGRAM FILES (X86)\MICROSOFT SDKS\WINDOWS\V7.0A\INCLUDE\WINDOWS.H
C:\PROGRAM FILES (X86)\MICROSOFT SDKS\WINDOWS\V7.0A\INCLUDE\SDKDDKVER.H
C:\PROGRAM FILES (X86)\MICROSOFT VISUAL STUDIO 10.0\VC\INCLUDE\EXCPT.H
C:\PROGRAM FILES (X86)\MICROSOFT VISUAL STUDIO 10.0\VC\INCLUDE\CRTDEFS.H
C:\PROGRAM FILES (X86)\MICROSOFT VISUAL STUDIO 10.0\VC\INCLUDE\SAL.H
C:\PROGRAM FILES (X86)\MICROSOFT VISUAL STUDIO 10.0\VC\INCLUDE\CODEANALYSIS\SOURCEANNOTATIONS.H
C:\PROGRAM FILES (X86)\MICROSOFT VISUAL STUDIO 10.0\VC\INCLUDE\VADEFS.H
C:\PROGRAM FILES (X86)\MICROSOFT VISUAL STUDIO 10.0\VC\INCLUDE\STDARG.H
C:\PROGRAM FILES (X86)\MICROSOFT SDKS\WINDOWS\V7.0A\INCLUDE\WINDEF.H
C:\PROGRAM FILES (X86)\MICROSOFT SDKS\WINDOWS\V7.0A\INCLUDE\WINNT.H
C:\PROGRAM FILES (X86)\MICROSOFT VISUAL STUDIO 10.0\VC\INCLUDE\CTYPE.H
C:\PROGRAM FILES (X86)\MICROSOFT SDKS\WINDOWS\V7.0A\INCLUDE\SPECSTRINGS.H
C:\PROGRAM FILES (X86)\MICROSOFT SDKS\WINDOWS\V7.0A\INCLUDE\SAL_SUPP.H
C:\PROGRAM FILES (X86)\MICROSOFT SDKS\WINDOWS\V7.0A\INCLUDE\SPECSTRINGS_SUPP.H
C:\PROGRAM FILES (X86)\MICROSOFT SDKS\WINDOWS\V7.0A\INCLUDE\SPECSTRINGS_STRICT.H
C:\PROGRAM FILES (X86)\MICROSOFT SDKS\WINDOWS\V7.0A\INCLUDE\SPECSTRINGS_UNDEF.H
C:\PROGRAM FILES (X86)\MICROSOFT SDKS\WINDOWS\V7.0A\INCLUDE\DRIVERSPECS.H
C:\PROGRAM FILES (X86)\MICROSOFT SDKS\WINDOWS\V7.0A\INCLUDE\SDV_DRIVERSPECS.H
C:\PROGRAM FILES (X86)\MICROSOFT SDKS\WINDOWS\V7.0A\INCLUDE\KERNELSPECS.H
C:\PROGRAM FILES (X86)\MICROSOFT SDKS\WINDOWS\V7.0A\INCLUDE\BASETSD.H
C:\PROGRAM FILES (X86)\MICROSOFT SDKS\WINDOWS\V7.0A\INCLUDE\GUIDDEF.H
C:\PROGRAM FILES (X86)\MICROSOFT VISUAL STUDIO 10.0\VC\INCLUDE\STRING.H
C:\PROGRAM FILES (X86)\MICROSOFT SDKS\WINDOWS\V7.0A\INCLUDE\PSHPACK4.H
C:\PROGRAM FILES (X86)\MICROSOFT SDKS\WINDOWS\V7.0A\INCLUDE\POPPACK.H
C:\PROGRAM FILES (X86)\MICROSOFT SDKS\WINDOWS\V7.0A\INCLUDE\PSHPACK2.H
C:\PROGRAM FILES (X86)\MICROSOFT SDKS\WINDOWS\V7.0A\INCLUDE\PSHPACK8.H
C:\PROGRAM FILES (X86)\MICROSOFT SDKS\WINDOWS\V7.0A\INCLUDE\KTMTYPES.H
C:\PROGRAM FILES (X86)\MICROSOFT SDKS\WINDOWS\V7.0A\INCLUDE\WINBASE.H
C:\PROGRAM FILES (X86)\MICROSOFT SDKS\WINDOWS\V7.0A\INCLUDE\WINERROR.H
C:\PROGRAM FILES (X86)\MICROSOFT SDKS\WINDOWS\V7.0A\INCLUDE\WINGDI.H
C:\PROGRAM FILES (X86)\MICROSOFT SDKS\WINDOWS\V7.0A\INCLUDE\PSHPACK1.H
C:\PROGRAM FILES (X86)\MICROSOFT SDKS\WINDOWS\V7.0A\INCLUDE\WINUSER.H
C:\PROGRAM FILES (X86)\MICROSOFT SDKS\WINDOWS\V7.0A\INCLUDE\TVOUT.H
C:\PROGRAM FILES (X86)\MICROSOFT SDKS\WINDOWS\V7.0A\INCLUDE\WINNLS.H
C:\PROGRAM FILES (X86)\MICROSOFT SDKS\WINDOWS\V7.0A\INCLUDE\WINCON.H
C:\PROGRAM FILES (X86)\MICROSOFT SDKS\WINDOWS\V7.0A\INCLUDE\WINVER.H
C:\PROGRAM FILES (X86)\MICROSOFT SDKS\WINDOWS\V7.0A\INCLUDE\VERRSRC.H
C:\PROGRAM FILES (X86)\MICROSOFT SDKS\WINDOWS\V7.0A\INCLUDE\WINREG.H
C:\PROGRAM FILES (X86)\MICROSOFT SDKS\WINDOWS\V7.0A\INCLUDE\REASON.H
C:\PROGRAM FILES (X86)\MICROSOFT SDKS\WINDOWS\V7.0A\INCLUDE\WINNETWK.H
C:\PROGRAM FILES (X86)\MICROSOFT SDKS\WINDOWS\V7.0A\INCLUDE\WNNC.H
C:\PROGRAM FILES (X86)\MICROSOFT SDKS\WINDOWS\V7.0A\INCLUDE\CDERR.H
C:\PROGRAM FILES (X86)\MICROSOFT SDKS\WINDOWS\V7.0A\INCLUDE\DDE.H
C:\PROGRAM FILES (X86)\MICROSOFT SDKS\WINDOWS\V7.0A\INCLUDE\DDEML.H
C:\PROGRAM FILES (X86)\MICROSOFT SDKS\WINDOWS\V7.0A\INCLUDE\DLGS.H
C:\PROGRAM FILES (X86)\MICROSOFT SDKS\WINDOWS\V7.0A\INCLUDE\LZEXPAND.H
C:\PROGRAM FILES (X86)\MICROSOFT SDKS\WINDOWS\V7.0A\INCLUDE\MMSYSTEM.H
C:\PROGRAM FILES (X86)\MICROSOFT SDKS\WINDOWS\V7.0A\INCLUDE\NB30.H
C:\PROGRAM FILES (X86)\MICROSOFT SDKS\WINDOWS\V7.0A\INCLUDE\RPC.H
C:\PROGRAM FILES (X86)\MICROSOFT SDKS\WINDOWS\V7.0A\INCLUDE\RPCDCE.H
C:\PROGRAM FILES (X86)\MICROSOFT SDKS\WINDOWS\V7.0A\INCLUDE\RPCDCEP.H
C:\PROGRAM FILES (X86)\MICROSOFT SDKS\WINDOWS\V7.0A\INCLUDE\RPCNSI.H
C:\PROGRAM FILES (X86)\MICROSOFT SDKS\WINDOWS\V7.0A\INCLUDE\RPCNTERR.H
C:\PROGRAM FILES (X86)\MICROSOFT SDKS\WINDOWS\V7.0A\INCLUDE\RPCASYNC.H
C:\PROGRAM FILES (X86)\MICROSOFT SDKS\WINDOWS\V7.0A\INCLUDE\SHELLAPI.H
C:\PROGRAM FILES (X86)\MICROSOFT SDKS\WINDOWS\V7.0A\INCLUDE\WINPERF.H
C:\PROGRAM FILES (X86)\MICROSOFT SDKS\WINDOWS\V7.0A\INCLUDE\WINSOCK.H
C:\PROGRAM FILES (X86)\MICROSOFT SDKS\WINDOWS\V7.0A\INCLUDE\INADDR.H
C:\PROGRAM FILES (X86)\MICROSOFT SDKS\WINDOWS\V7.0A\INCLUDE\WINCRYPT.H
C:\PROGRAM FILES (X86)\MICROSOFT SDKS\WINDOWS\V7.0A\INCLUDE\BCRYPT.H
C:\PROGRAM FILES (X86)\MICROSOFT SDKS\WINDOWS\V7.0A\INCLUDE\NCRYPT.H
C:\PROGRAM FILES (X86)\MICROSOFT SDKS\WINDOWS\V7.0A\INCLUDE\WINEFS.H
C:\PROGRAM FILES (X86)\MICROSOFT SDKS\WINDOWS\V7.0A\INCLUDE\WINSCARD.H
C:\PROGRAM FILES (X86)\MICROSOFT SDKS\WINDOWS\V7.0A\INCLUDE\WTYPES.H
C:\PROGRAM FILES (X86)\MICROSOFT SDKS\WINDOWS\V7.0A\INCLUDE\RPCNDR.H
C:\PROGRAM FILES (X86)\MICROSOFT SDKS\WINDOWS\V7.0A\INCLUDE\RPCNSIP.H
C:\PROGRAM FILES (X86)\MICROSOFT SDKS\WINDOWS\V7.0A\INCLUDE\RPCSAL.H
C:\PROGRAM FILES (X86)\MICROSOFT SDKS\WINDOWS\V7.0A\INCLUDE\WINIOCTL.H
C:\PROGRAM FILES (X86)\MICROSOFT SDKS\WINDOWS\V7.0A\INCLUDE\WINSMCRD.H
C:\PROGRAM FILES (X86)\MICROSOFT SDKS\WINDOWS\V7.0A\INCLUDE\WINSPOOL.H
C:\PROGRAM FILES (X86)\MICROSOFT SDKS\WINDOWS\V7.0A\INCLUDE\PRSHT.H
C:\PROGRAM FILES (X86)\MICROSOFT SDKS\WINDOWS\V7.0A\INCLUDE\OLE2.H
C:\PROGRAM FILES (X86)\MICROSOFT SDKS\WINDOWS\V7.0A\INCLUDE\OBJBASE.H
C:\PROGRAM FILES (X86)\MICROSOFT VISUAL STUDIO 10.0\VC\INCLUDE\STDLIB.H
C:\PROGRAM FILES (X86)\MICROSOFT VISUAL STUDIO 10.0\VC\INCLUDE\LIMITS.H
C:\PROGRAM FILES (X86)\MICROSOFT SDKS\WINDOWS\V7.0A\INCLUDE\UNKNWN.H
C:\PROGRAM FILES (X86)\MICROSOFT SDKS\WINDOWS\V7.0A\INCLUDE\OBJIDL.H
C:\PROGRAM FILES (X86)\MICROSOFT SDKS\WINDOWS\V7.0A\INCLUDE\CGUID.H
C:\PROGRAM FILES (X86)\MICROSOFT SDKS\WINDOWS\V7.0A\INCLUDE\URLMON.H
C:\PROGRAM FILES (X86)\MICROSOFT SDKS\WINDOWS\V7.0A\INCLUDE\OLEIDL.H
C:\PROGRAM FILES (X86)\MICROSOFT SDKS\WINDOWS\V7.0A\INCLUDE\SERVPROV.H
C:\PROGRAM FILES (X86)\MICROSOFT SDKS\WINDOWS\V7.0A\INCLUDE\MSXML.H
C:\PROGRAM FILES (X86)\MICROSOFT SDKS\WINDOWS\V7.0A\INCLUDE\OAIDL.H
C:\PROGRAM FILES (X86)\MICROSOFT SDKS\WINDOWS\V7.0A\INCLUDE\PROPIDL.H
C:\PROGRAM FILES (X86)\MICROSOFT SDKS\WINDOWS\V7.0A\INCLUDE\OLEAUTO.H
C:\PROGRAM FILES (X86)\MICROSOFT SDKS\WINDOWS\V7.0A\INCLUDE\COMMDLG.H
C:\PROGRAM FILES (X86)\MICROSOFT SDKS\WINDOWS\V7.0A\INCLUDE\STRALIGN.H
C:\PROGRAM FILES (X86)\MICROSOFT SDKS\WINDOWS\V7.0A\INCLUDE\WINSVC.H
C:\PROGRAM FILES (X86)\MICROSOFT SDKS\WINDOWS\V7.0A\INCLUDE\MCX.H
C:\PROGRAM FILES (X86)\MICROSOFT SDKS\WINDOWS\V7.0A\INCLUDE\IMM.H
C:\PROGRAM FILES (X86)\MICROSOFT SDKS\WINDOWS\V7.0A\INCLUDE\IME_CMODES.H
C:\PROGRAM FILES (X86)\MICROSOFT VISUAL STUDIO 10.0\VC\INCLUDE\STDIO.H
C:\PROGRAM FILES (X86)\MICROSOFT VISUAL STUDIO 10.0\VC\INCLUDE\SWPRINTF.INL
C:\PROGRAM FILES (X86)\MICROSOFT VISUAL STUDIO 10.0\VC\INCLUDE\MATH.H
D:\USC_STUDY\CSCI580_3D_GRAPHICS_RENDERING\CHINESEPAINTINGMAIN\CHINESEPAINTINGMAIN\CHINESE_PAINTING\SHADER.HPP
D:\USC_STUDY\CSCI580_3D_GRAPHICS_RENDERING\CHINESEPAINTINGMAIN\CHINESEPAINTINGMAIN\CHINESE_PAINTING\GLEW\GLEW.H
C:\PROGRAM FILES (X86)\MICROSOFT SDKS\WINDOWS\V7.0A\INCLUDE\GL\GLU.H
C:\PROGRAM FILES (X86)\MICROSOFT SDKS\WINDOWS\V7.0A\INCLUDE\GL\GL.H
D:\USC_STUDY\CSCI580_3D_GRAPHICS_RENDERING\CHINESEPAINTINGMAIN\CHINESEPAINTINGMAIN\CHINESE_PAINTING\GLUT\GLUT.H
D:\USC_STUDY\CSCI580_3D_GRAPHICS_RENDERING\CHINESEPAINTINGMAIN\CHINESEPAINTINGMAIN\CHINESE_PAINTING\GLM\GLM.HPP
D:\USC_STUDY\CSCI580_3D_GRAPHICS_RENDERING\CHINESEPAINTINGMAIN\CHINESEPAINTINGMAIN\CHINESE_PAINTING\GLM\CORE\_FIXES.HPP
C:\PROGRAM FILES (X86)\MICROSOFT VISUAL STUDIO 10.0\VC\INCLUDE\CMATH
C:\PROGRAM FILES (X86)\MICROSOFT VISUAL STUDIO 10.0\VC\INCLUDE\YVALS.H
C:\PROGRAM FILES (X86)\MICROSOFT VISUAL STUDIO 10.0\VC\INCLUDE\USE_ANSI.H
C:\PROGRAM FILES (X86)\MICROSOFT VISUAL STUDIO 10.0\VC\INCLUDE\CLIMITS
C:\PROGRAM FILES (X86)\MICROSOFT VISUAL STUDIO 10.0\VC\INCLUDE\CFLOAT
C:\PROGRAM FILES (X86)\MICROSOFT VISUAL STUDIO 10.0\VC\INCLUDE\FLOAT.H
C:\PROGRAM FILES (X86)\MICROSOFT VISUAL STUDIO 10.0\VC\INCLUDE\CRTWRN.H
C:\PROGRAM FILES (X86)\MICROSOFT VISUAL STUDIO 10.0\VC\INCLUDE\LIMITS
C:\PROGRAM FILES (X86)\MICROSOFT VISUAL STUDIO 10.0\VC\INCLUDE\YMATH.H
C:\PROGRAM FILES (X86)\MICROSOFT VISUAL STUDIO 10.0\VC\INCLUDE\CWCHAR
C:\PROGRAM FILES (X86)\MICROSOFT VISUAL STUDIO 10.0\VC\INCLUDE\WCHAR.H
C:\PROGRAM FILES (X86)\MICROSOFT VISUAL STUDIO 10.0\VC\INCLUDE\WTIME.INL
C:\PROGRAM FILES (X86)\MICROSOFT VISUAL STUDIO 10.0\VC\INCLUDE\XSTDDEF
C:\PROGRAM FILES (X86)\MICROSOFT VISUAL STUDIO 10.0\VC\INCLUDE\CSTDDEF
C:\PROGRAM FILES (X86)\MICROSOFT VISUAL STUDIO 10.0\VC\INCLUDE\STDDEF.H
C:\PROGRAM FILES (X86)\MICROSOFT VISUAL STUDIO 10.0\VC\INCLUDE\CSTDIO
D:\USC_STUDY\CSCI580_3D_GRAPHICS_RENDERING\CHINESEPAINTINGMAIN\CHINESEPAINTINGMAIN\CHINESE_PAINTING\GLM\CORE\SETUP.HPP
C:\PROGRAM FILES (X86)\MICROSOFT VISUAL STUDIO 10.0\VC\INCLUDE\PMMINTRIN.H
C:\PROGRAM FILES (X86)\MICROSOFT VISUAL STUDIO 10.0\VC\INCLUDE\EMMINTRIN.H
C:\PROGRAM FILES (X86)\MICROSOFT VISUAL STUDIO 10.0\VC\INCLUDE\XMMINTRIN.H
C:\PROGRAM FILES (X86)\MICROSOFT VISUAL STUDIO 10.0\VC\INCLUDE\MMINTRIN.H
C:\PROGRAM FILES (X86)\MICROSOFT VISUAL STUDIO 10.0\VC\INCLUDE\MALLOC.H
D:\USC_STUDY\CSCI580_3D_GRAPHICS_RENDERING\CHINESEPAINTINGMAIN\CHINESEPAINTINGMAIN\CHINESE_PAINTING\GLM\CORE\_DETAIL.HPP
C:\PROGRAM FILES (X86)\MICROSOFT VISUAL STUDIO 10.0\VC\INCLUDE\CASSERT
C:\PROGRAM FILES (X86)\MICROSOFT VISUAL STUDIO 10.0\VC\INCLUDE\ASSERT.H
D:\USC_STUDY\CSCI580_3D_GRAPHICS_RENDERING\CHINESEPAINTINGMAIN\CHINESEPAINTINGMAIN\CHINESE_PAINTING\GLM\CORE\_VECTORIZE.HPP
D:\USC_STUDY\CSCI580_3D_GRAPHICS_RENDERING\CHINESEPAINTINGMAIN\CHINESEPAINTINGMAIN\CHINESE_PAINTING\GLM\CORE\TYPE.HPP
D:\USC_STUDY\CSCI580_3D_GRAPHICS_RENDERING\CHINESEPAINTINGMAIN\CHINESEPAINTINGMAIN\CHINESE_PAINTING\GLM\CORE\TYPE_HALF.HPP
C:\PROGRAM FILES (X86)\MICROSOFT VISUAL STUDIO 10.0\VC\INCLUDE\CSTDLIB
D:\USC_STUDY\CSCI580_3D_GRAPHICS_RENDERING\CHINESEPAINTINGMAIN\CHINESEPAINTINGMAIN\CHINESE_PAINTING\GLM\CORE\TYPE_HALF.INL
D:\USC_STUDY\CSCI580_3D_GRAPHICS_RENDERING\CHINESEPAINTINGMAIN\CHINESEPAINTINGMAIN\CHINESE_PAINTING\GLM\CORE\TYPE_FLOAT.HPP
D:\USC_STUDY\CSCI580_3D_GRAPHICS_RENDERING\CHINESEPAINTINGMAIN\CHINESEPAINTINGMAIN\CHINESE_PAINTING\GLM\CORE\TYPE_INT.HPP
D:\USC_STUDY\CSCI580_3D_GRAPHICS_RENDERING\CHINESEPAINTINGMAIN\CHINESEPAINTINGMAIN\CHINESE_PAINTING\GLM\CORE\TYPE_GENTYPE.HPP
D:\USC_STUDY\CSCI580_3D_GRAPHICS_RENDERING\CHINESEPAINTINGMAIN\CHINESEPAINTINGMAIN\CHINESE_PAINTING\GLM\CORE\TYPE_SIZE.HPP
D:\USC_STUDY\CSCI580_3D_GRAPHICS_RENDERING\CHINESEPAINTINGMAIN\CHINESEPAINTINGMAIN\CHINESE_PAINTING\GLM\CORE\TYPE_VEC1.HPP
D:\USC_STUDY\CSCI580_3D_GRAPHICS_RENDERING\CHINESEPAINTINGMAIN\CHINESEPAINTINGMAIN\CHINESE_PAINTING\GLM\CORE\TYPE_VEC.HPP
D:\USC_STUDY\CSCI580_3D_GRAPHICS_RENDERING\CHINESEPAINTINGMAIN\CHINESEPAINTINGMAIN\CHINESE_PAINTING\GLM\CORE\_SWIZZLE.HPP
D:\USC_STUDY\CSCI580_3D_GRAPHICS_RENDERING\CHINESEPAINTINGMAIN\CHINESEPAINTINGMAIN\CHINESE_PAINTING\GLM\CORE\_SWIZZLE_FUNC.HPP
D:\USC_STUDY\CSCI580_3D_GRAPHICS_RENDERING\CHINESEPAINTINGMAIN\CHINESEPAINTINGMAIN\CHINESE_PAINTING\GLM\CORE\TYPE_VEC1.INL
D:\USC_STUDY\CSCI580_3D_GRAPHICS_RENDERING\CHINESEPAINTINGMAIN\CHINESEPAINTINGMAIN\CHINESE_PAINTING\GLM\CORE\TYPE_VEC2.HPP
D:\USC_STUDY\CSCI580_3D_GRAPHICS_RENDERING\CHINESEPAINTINGMAIN\CHINESEPAINTINGMAIN\CHINESE_PAINTING\GLM\CORE\TYPE_VEC2.INL
D:\USC_STUDY\CSCI580_3D_GRAPHICS_RENDERING\CHINESEPAINTINGMAIN\CHINESEPAINTINGMAIN\CHINESE_PAINTING\GLM\CORE\TYPE_VEC3.HPP
D:\USC_STUDY\CSCI580_3D_GRAPHICS_RENDERING\CHINESEPAINTINGMAIN\CHINESEPAINTINGMAIN\CHINESE_PAINTING\GLM\CORE\TYPE_VEC3.INL
D:\USC_STUDY\CSCI580_3D_GRAPHICS_RENDERING\CHINESEPAINTINGMAIN\CHINESEPAINTINGMAIN\CHINESE_PAINTING\GLM\CORE\TYPE_VEC4.HPP
D:\USC_STUDY\CSCI580_3D_GRAPHICS_RENDERING\CHINESEPAINTINGMAIN\CHINESEPAINTINGMAIN\CHINESE_PAINTING\GLM\CORE\TYPE_VEC4.INL
D:\USC_STUDY\CSCI580_3D_GRAPHICS_RENDERING\CHINESEPAINTINGMAIN\CHINESEPAINTINGMAIN\CHINESE_PAINTING\GLM\CORE\TYPE_MAT2X2.HPP
D:\USC_STUDY\CSCI580_3D_GRAPHICS_RENDERING\CHINESEPAINTINGMAIN\CHINESEPAINTINGMAIN\CHINESE_PAINTING\GLM\CORE\TYPE_MAT.HPP
D:\USC_STUDY\CSCI580_3D_GRAPHICS_RENDERING\CHINESEPAINTINGMAIN\CHINESEPAINTINGMAIN\CHINESE_PAINTING\GLM\CORE\TYPE_MAT2X2.INL
D:\USC_STUDY\CSCI580_3D_GRAPHICS_RENDERING\CHINESEPAINTINGMAIN\CHINESEPAINTINGMAIN\CHINESE_PAINTING\GLM\CORE\TYPE_MAT2X3.HPP
D:\USC_STUDY\CSCI580_3D_GRAPHICS_RENDERING\CHINESEPAINTINGMAIN\CHINESEPAINTINGMAIN\CHINESE_PAINTING\GLM\CORE\TYPE_MAT2X3.INL
D:\USC_STUDY\CSCI580_3D_GRAPHICS_RENDERING\CHINESEPAINTINGMAIN\CHINESEPAINTINGMAIN\CHINESE_PAINTING\GLM\CORE\TYPE_MAT2X4.HPP
D:\USC_STUDY\CSCI580_3D_GRAPHICS_RENDERING\CHINESEPAINTINGMAIN\CHINESEPAINTINGMAIN\CHINESE_PAINTING\GLM\CORE\TYPE_MAT2X4.INL
D:\USC_STUDY\CSCI580_3D_GRAPHICS_RENDERING\CHINESEPAINTINGMAIN\CHINESEPAINTINGMAIN\CHINESE_PAINTING\GLM\CORE\TYPE_MAT3X2.HPP
D:\USC_STUDY\CSCI580_3D_GRAPHICS_RENDERING\CHINESEPAINTINGMAIN\CHINESEPAINTINGMAIN\CHINESE_PAINTING\GLM\CORE\TYPE_MAT3X2.INL
D:\USC_STUDY\CSCI580_3D_GRAPHICS_RENDERING\CHINESEPAINTINGMAIN\CHINESEPAINTINGMAIN\CHINESE_PAINTING\GLM\CORE\TYPE_MAT3X3.HPP
D:\USC_STUDY\CSCI580_3D_GRAPHICS_RENDERING\CHINESEPAINTINGMAIN\CHINESEPAINTINGMAIN\CHINESE_PAINTING\GLM\CORE\TYPE_MAT3X3.INL
D:\USC_STUDY\CSCI580_3D_GRAPHICS_RENDERING\CHINESEPAINTINGMAIN\CHINESEPAINTINGMAIN\CHINESE_PAINTING\GLM\CORE\TYPE_MAT3X4.HPP
D:\USC_STUDY\CSCI580_3D_GRAPHICS_RENDERING\CHINESEPAINTINGMAIN\CHINESEPAINTINGMAIN\CHINESE_PAINTING\GLM\CORE\TYPE_MAT3X4.INL
D:\USC_STUDY\CSCI580_3D_GRAPHICS_RENDERING\CHINESEPAINTINGMAIN\CHINESEPAINTINGMAIN\CHINESE_PAINTING\GLM\CORE\TYPE_MAT4X2.HPP
D:\USC_STUDY\CSCI580_3D_GRAPHICS_RENDERING\CHINESEPAINTINGMAIN\CHINESEPAINTINGMAIN\CHINESE_PAINTING\GLM\CORE\TYPE_MAT4X2.INL
D:\USC_STUDY\CSCI580_3D_GRAPHICS_RENDERING\CHINESEPAINTINGMAIN\CHINESEPAINTINGMAIN\CHINESE_PAINTING\GLM\CORE\TYPE_MAT4X3.HPP
D:\USC_STUDY\CSCI580_3D_GRAPHICS_RENDERING\CHINESEPAINTINGMAIN\CHINESEPAINTINGMAIN\CHINESE_PAINTING\GLM\CORE\TYPE_MAT4X3.INL
D:\USC_STUDY\CSCI580_3D_GRAPHICS_RENDERING\CHINESEPAINTINGMAIN\CHINESEPAINTINGMAIN\CHINESE_PAINTING\GLM\CORE\TYPE_MAT4X4.HPP
D:\USC_STUDY\CSCI580_3D_GRAPHICS_RENDERING\CHINESEPAINTINGMAIN\CHINESEPAINTINGMAIN\CHINESE_PAINTING\GLM\CORE\TYPE_MAT4X4.INL
D:\USC_STUDY\CSCI580_3D_GRAPHICS_RENDERING\CHINESEPAINTINGMAIN\CHINESEPAINTINGMAIN\CHINESE_PAINTING\GLM\CORE\FUNC_TRIGONOMETRIC.HPP
D:\USC_STUDY\CSCI580_3D_GRAPHICS_RENDERING\CHINESEPAINTINGMAIN\CHINESEPAINTINGMAIN\CHINESE_PAINTING\GLM\CORE\FUNC_TRIGONOMETRIC.INL
D:\USC_STUDY\CSCI580_3D_GRAPHICS_RENDERING\CHINESEPAINTINGMAIN\CHINESEPAINTINGMAIN\CHINESE_PAINTING\GLM\CORE\FUNC_EXPONENTIAL.HPP
D:\USC_STUDY\CSCI580_3D_GRAPHICS_RENDERING\CHINESEPAINTINGMAIN\CHINESEPAINTINGMAIN\CHINESE_PAINTING\GLM\CORE\FUNC_EXPONENTIAL.INL
D:\USC_STUDY\CSCI580_3D_GRAPHICS_RENDERING\CHINESEPAINTINGMAIN\CHINESEPAINTINGMAIN\CHINESE_PAINTING\GLM\CORE\FUNC_COMMON.HPP
D:\USC_STUDY\CSCI580_3D_GRAPHICS_RENDERING\CHINESEPAINTINGMAIN\CHINESEPAINTINGMAIN\CHINESE_PAINTING\GLM\CORE\FUNC_COMMON.INL
D:\USC_STUDY\CSCI580_3D_GRAPHICS_RENDERING\CHINESEPAINTINGMAIN\CHINESEPAINTINGMAIN\CHINESE_PAINTING\GLM\CORE\FUNC_PACKING.HPP
D:\USC_STUDY\CSCI580_3D_GRAPHICS_RENDERING\CHINESEPAINTINGMAIN\CHINESEPAINTINGMAIN\CHINESE_PAINTING\GLM\CORE\FUNC_PACKING.INL
D:\USC_STUDY\CSCI580_3D_GRAPHICS_RENDERING\CHINESEPAINTINGMAIN\CHINESEPAINTINGMAIN\CHINESE_PAINTING\GLM\CORE\FUNC_GEOMETRIC.HPP
D:\USC_STUDY\CSCI580_3D_GRAPHICS_RENDERING\CHINESEPAINTINGMAIN\CHINESEPAINTINGMAIN\CHINESE_PAINTING\GLM\CORE\FUNC_GEOMETRIC.INL
D:\USC_STUDY\CSCI580_3D_GRAPHICS_RENDERING\CHINESEPAINTINGMAIN\CHINESEPAINTINGMAIN\CHINESE_PAINTING\GLM\CORE\FUNC_MATRIX.HPP
D:\USC_STUDY\CSCI580_3D_GRAPHICS_RENDERING\CHINESEPAINTINGMAIN\CHINESEPAINTINGMAIN\CHINESE_PAINTING\GLM\CORE\FUNC_MATRIX.INL
D:\USC_STUDY\CSCI580_3D_GRAPHICS_RENDERING\CHINESEPAINTINGMAIN\CHINESEPAINTINGMAIN\CHINESE_PAINTING\GLM\CORE\FUNC_VECTOR_RELATIONAL.HPP
D:\USC_STUDY\CSCI580_3D_GRAPHICS_RENDERING\CHINESEPAINTINGMAIN\CHINESEPAINTINGMAIN\CHINESE_PAINTING\GLM\CORE\FUNC_VECTOR_RELATIONAL.INL
D:\USC_STUDY\CSCI580_3D_GRAPHICS_RENDERING\CHINESEPAINTINGMAIN\CHINESEPAINTINGMAIN\CHINESE_PAINTING\GLM\CORE\FUNC_INTEGER.HPP
D:\USC_STUDY\CSCI580_3D_GRAPHICS_RENDERING\CHINESEPAINTINGMAIN\CHINESEPAINTINGMAIN\CHINESE_PAINTING\GLM\CORE\FUNC_INTEGER.INL
C:\PROGRAM FILES (X86)\MICROSOFT VISUAL STUDIO 10.0\VC\INCLUDE\INTRIN.H
C:\PROGRAM FILES (X86)\MICROSOFT VISUAL STUDIO 10.0\VC\INCLUDE\SETJMP.H
C:\PROGRAM FILES (X86)\MICROSOFT VISUAL STUDIO 10.0\VC\INCLUDE\IMMINTRIN.H
C:\PROGRAM FILES (X86)\MICROSOFT VISUAL STUDIO 10.0\VC\INCLUDE\WMMINTRIN.H
C:\PROGRAM FILES (X86)\MICROSOFT VISUAL STUDIO 10.0\VC\INCLUDE\NMMINTRIN.H
C:\PROGRAM FILES (X86)\MICROSOFT VISUAL STUDIO 10.0\VC\INCLUDE\SMMINTRIN.H
C:\PROGRAM FILES (X86)\MICROSOFT VISUAL STUDIO 10.0\VC\INCLUDE\TMMINTRIN.H
C:\PROGRAM FILES (X86)\MICROSOFT VISUAL STUDIO 10.0\VC\INCLUDE\MM3DNOW.H
D:\USC_STUDY\CSCI580_3D_GRAPHICS_RENDERING\CHINESEPAINTINGMAIN\CHINESEPAINTINGMAIN\CHINESE_PAINTING\GLM\CORE\FUNC_NOISE.HPP
D:\USC_STUDY\CSCI580_3D_GRAPHICS_RENDERING\CHINESEPAINTINGMAIN\CHINESEPAINTINGMAIN\CHINESE_PAINTING\GLM\CORE\FUNC_NOISE.INL
D:\USC_STUDY\CSCI580_3D_GRAPHICS_RENDERING\CHINESEPAINTINGMAIN\CHINESEPAINTINGMAIN\CHINESE_PAINTING\GLM\GTC\MATRIX_TRANSFORM.HPP
D:\USC_STUDY\CSCI580_3D_GRAPHICS_RENDERING\CHINESEPAINTINGMAIN\CHINESEPAINTINGMAIN\CHINESE_PAINTING\GLM\GTC\MATRIX_TRANSFORM.INL
D:\USC_STUDY\CSCI580_3D_GRAPHICS_RENDERING\CHINESEPAINTINGMAIN\CHINESEPAINTINGMAIN\CHINESE_PAINTING\INPUT.H
^D:\USC_STUDY\CSCI580_3D_GRAPHICS_RENDERING\CHINESEPAINTINGMAIN\CHINESEPAINTINGMAIN\CHINESE_PAINTING\CHINESE_PAINTING.CPP
D:\USC_STUDY\CSCI580_3D_GRAPHICS_RENDERING\CHINESEPAINTINGMAIN\CHINESEPAINTINGMAIN\CHINESE_PAINTING\CHINESE_PAINTING.H
C:\PROGRAM FILES (X86)\MICROSOFT SDKS\WINDOWS\V7.0A\INCLUDE\WINDOWS.H
C:\PROGRAM FILES (X86)\MICROSOFT SDKS\WINDOWS\V7.0A\INCLUDE\SDKDDKVER.H
C:\PROGRAM FILES (X86)\MICROSOFT VISUAL STUDIO 10.0\VC\INCLUDE\EXCPT.H
C:\PROGRAM FILES (X86)\MICROSOFT VISUAL STUDIO 10.0\VC\INCLUDE\CRTDEFS.H
C:\PROGRAM FILES (X86)\MICROSOFT VISUAL STUDIO 10.0\VC\INCLUDE\SAL.H
C:\PROGRAM FILES (X86)\MICROSOFT VISUAL STUDIO 10.0\VC\INCLUDE\CODEANALYSIS\SOURCEANNOTATIONS.H
C:\PROGRAM FILES (X86)\MICROSOFT VISUAL STUDIO 10.0\VC\INCLUDE\VADEFS.H
C:\PROGRAM FILES (X86)\MICROSOFT VISUAL STUDIO 10.0\VC\INCLUDE\STDARG.H
C:\PROGRAM FILES (X86)\MICROSOFT SDKS\WINDOWS\V7.0A\INCLUDE\WINDEF.H
C:\PROGRAM FILES (X86)\MICROSOFT SDKS\WINDOWS\V7.0A\INCLUDE\WINNT.H
C:\PROGRAM FILES (X86)\MICROSOFT VISUAL STUDIO 10.0\VC\INCLUDE\CTYPE.H
C:\PROGRAM FILES (X86)\MICROSOFT SDKS\WINDOWS\V7.0A\INCLUDE\SPECSTRINGS.H
C:\PROGRAM FILES (X86)\MICROSOFT SDKS\WINDOWS\V7.0A\INCLUDE\SAL_SUPP.H
C:\PROGRAM FILES (X86)\MICROSOFT SDKS\WINDOWS\V7.0A\INCLUDE\SPECSTRINGS_SUPP.H
C:\PROGRAM FILES (X86)\MICROSOFT SDKS\WINDOWS\V7.0A\INCLUDE\SPECSTRINGS_STRICT.H
C:\PROGRAM FILES (X86)\MICROSOFT SDKS\WINDOWS\V7.0A\INCLUDE\SPECSTRINGS_UNDEF.H
C:\PROGRAM FILES (X86)\MICROSOFT SDKS\WINDOWS\V7.0A\INCLUDE\DRIVERSPECS.H
C:\PROGRAM FILES (X86)\MICROSOFT SDKS\WINDOWS\V7.0A\INCLUDE\SDV_DRIVERSPECS.H
C:\PROGRAM FILES (X86)\MICROSOFT SDKS\WINDOWS\V7.0A\INCLUDE\KERNELSPECS.H
C:\PROGRAM FILES (X86)\MICROSOFT SDKS\WINDOWS\V7.0A\INCLUDE\BASETSD.H
C:\PROGRAM FILES (X86)\MICROSOFT SDKS\WINDOWS\V7.0A\INCLUDE\GUIDDEF.H
C:\PROGRAM FILES (X86)\MICROSOFT VISUAL STUDIO 10.0\VC\INCLUDE\STRING.H
C:\PROGRAM FILES (X86)\MICROSOFT SDKS\WINDOWS\V7.0A\INCLUDE\PSHPACK4.H
C:\PROGRAM FILES (X86)\MICROSOFT SDKS\WINDOWS\V7.0A\INCLUDE\POPPACK.H
C:\PROGRAM FILES (X86)\MICROSOFT SDKS\WINDOWS\V7.0A\INCLUDE\PSHPACK2.H
C:\PROGRAM FILES (X86)\MICROSOFT SDKS\WINDOWS\V7.0A\INCLUDE\PSHPACK8.H
C:\PROGRAM FILES (X86)\MICROSOFT SDKS\WINDOWS\V7.0A\INCLUDE\KTMTYPES.H
C:\PROGRAM FILES (X86)\MICROSOFT SDKS\WINDOWS\V7.0A\INCLUDE\WINBASE.H
C:\PROGRAM FILES (X86)\MICROSOFT SDKS\WINDOWS\V7.0A\INCLUDE\WINERROR.H
C:\PROGRAM FILES (X86)\MICROSOFT SDKS\WINDOWS\V7.0A\INCLUDE\WINGDI.H
C:\PROGRAM FILES (X86)\MICROSOFT SDKS\WINDOWS\V7.0A\INCLUDE\PSHPACK1.H
C:\PROGRAM FILES (X86)\MICROSOFT SDKS\WINDOWS\V7.0A\INCLUDE\WINUSER.H
C:\PROGRAM FILES (X86)\MICROSOFT SDKS\WINDOWS\V7.0A\INCLUDE\TVOUT.H
C:\PROGRAM FILES (X86)\MICROSOFT SDKS\WINDOWS\V7.0A\INCLUDE\WINNLS.H
C:\PROGRAM FILES (X86)\MICROSOFT SDKS\WINDOWS\V7.0A\INCLUDE\WINCON.H
C:\PROGRAM FILES (X86)\MICROSOFT SDKS\WINDOWS\V7.0A\INCLUDE\WINVER.H
C:\PROGRAM FILES (X86)\MICROSOFT SDKS\WINDOWS\V7.0A\INCLUDE\VERRSRC.H
C:\PROGRAM FILES (X86)\MICROSOFT SDKS\WINDOWS\V7.0A\INCLUDE\WINREG.H
C:\PROGRAM FILES (X86)\MICROSOFT SDKS\WINDOWS\V7.0A\INCLUDE\REASON.H
C:\PROGRAM FILES (X86)\MICROSOFT SDKS\WINDOWS\V7.0A\INCLUDE\WINNETWK.H
C:\PROGRAM FILES (X86)\MICROSOFT SDKS\WINDOWS\V7.0A\INCLUDE\WNNC.H
C:\PROGRAM FILES (X86)\MICROSOFT SDKS\WINDOWS\V7.0A\INCLUDE\CDERR.H
C:\PROGRAM FILES (X86)\MICROSOFT SDKS\WINDOWS\V7.0A\INCLUDE\DDE.H
C:\PROGRAM FILES (X86)\MICROSOFT SDKS\WINDOWS\V7.0A\INCLUDE\DDEML.H
C:\PROGRAM FILES (X86)\MICROSOFT SDKS\WINDOWS\V7.0A\INCLUDE\DLGS.H
C:\PROGRAM FILES (X86)\MICROSOFT SDKS\WINDOWS\V7.0A\INCLUDE\LZEXPAND.H
C:\PROGRAM FILES (X86)\MICROSOFT SDKS\WINDOWS\V7.0A\INCLUDE\MMSYSTEM.H
C:\PROGRAM FILES (X86)\MICROSOFT SDKS\WINDOWS\V7.0A\INCLUDE\NB30.H
C:\PROGRAM FILES (X86)\MICROSOFT SDKS\WINDOWS\V7.0A\INCLUDE\RPC.H
C:\PROGRAM FILES (X86)\MICROSOFT SDKS\WINDOWS\V7.0A\INCLUDE\RPCDCE.H
C:\PROGRAM FILES (X86)\MICROSOFT SDKS\WINDOWS\V7.0A\INCLUDE\RPCDCEP.H
C:\PROGRAM FILES (X86)\MICROSOFT SDKS\WINDOWS\V7.0A\INCLUDE\RPCNSI.H
C:\PROGRAM FILES (X86)\MICROSOFT SDKS\WINDOWS\V7.0A\INCLUDE\RPCNTERR.H
C:\PROGRAM FILES (X86)\MICROSOFT SDKS\WINDOWS\V7.0A\INCLUDE\RPCASYNC.H
C:\PROGRAM FILES (X86)\MICROSOFT SDKS\WINDOWS\V7.0A\INCLUDE\SHELLAPI.H
C:\PROGRAM FILES (X86)\MICROSOFT SDKS\WINDOWS\V7.0A\INCLUDE\WINPERF.H
C:\PROGRAM FILES (X86)\MICROSOFT SDKS\WINDOWS\V7.0A\INCLUDE\WINSOCK.H
C:\PROGRAM FILES (X86)\MICROSOFT SDKS\WINDOWS\V7.0A\INCLUDE\INADDR.H
C:\PROGRAM FILES (X86)\MICROSOFT SDKS\WINDOWS\V7.0A\INCLUDE\WINCRYPT.H
C:\PROGRAM FILES (X86)\MICROSOFT SDKS\WINDOWS\V7.0A\INCLUDE\BCRYPT.H
C:\PROGRAM FILES (X86)\MICROSOFT SDKS\WINDOWS\V7.0A\INCLUDE\NCRYPT.H
C:\PROGRAM FILES (X86)\MICROSOFT SDKS\WINDOWS\V7.0A\INCLUDE\WINEFS.H
C:\PROGRAM FILES (X86)\MICROSOFT SDKS\WINDOWS\V7.0A\INCLUDE\WINSCARD.H
C:\PROGRAM FILES (X86)\MICROSOFT SDKS\WINDOWS\V7.0A\INCLUDE\WTYPES.H
C:\PROGRAM FILES (X86)\MICROSOFT SDKS\WINDOWS\V7.0A\INCLUDE\RPCNDR.H
C:\PROGRAM FILES (X86)\MICROSOFT SDKS\WINDOWS\V7.0A\INCLUDE\RPCNSIP.H
C:\PROGRAM FILES (X86)\MICROSOFT SDKS\WINDOWS\V7.0A\INCLUDE\RPCSAL.H
C:\PROGRAM FILES (X86)\MICROSOFT SDKS\WINDOWS\V7.0A\INCLUDE\WINIOCTL.H
C:\PROGRAM FILES (X86)\MICROSOFT SDKS\WINDOWS\V7.0A\INCLUDE\WINSMCRD.H
C:\PROGRAM FILES (X86)\MICROSOFT SDKS\WINDOWS\V7.0A\INCLUDE\WINSPOOL.H
C:\PROGRAM FILES (X86)\MICROSOFT SDKS\WINDOWS\V7.0A\INCLUDE\PRSHT.H
C:\PROGRAM FILES (X86)\MICROSOFT SDKS\WINDOWS\V7.0A\INCLUDE\OLE2.H
C:\PROGRAM FILES (X86)\MICROSOFT SDKS\WINDOWS\V7.0A\INCLUDE\OBJBASE.H
C:\PROGRAM FILES (X86)\MICROSOFT VISUAL STUDIO 10.0\VC\INCLUDE\STDLIB.H
C:\PROGRAM FILES (X86)\MICROSOFT VISUAL STUDIO 10.0\VC\INCLUDE\LIMITS.H
C:\PROGRAM FILES (X86)\MICROSOFT SDKS\WINDOWS\V7.0A\INCLUDE\UNKNWN.H
C:\PROGRAM FILES (X86)\MICROSOFT SDKS\WINDOWS\V7.0A\INCLUDE\OBJIDL.H
C:\PROGRAM FILES (X86)\MICROSOFT SDKS\WINDOWS\V7.0A\INCLUDE\CGUID.H
C:\PROGRAM FILES (X86)\MICROSOFT SDKS\WINDOWS\V7.0A\INCLUDE\URLMON.H
C:\PROGRAM FILES (X86)\MICROSOFT SDKS\WINDOWS\V7.0A\INCLUDE\OLEIDL.H
C:\PROGRAM FILES (X86)\MICROSOFT SDKS\WINDOWS\V7.0A\INCLUDE\SERVPROV.H
C:\PROGRAM FILES (X86)\MICROSOFT SDKS\WINDOWS\V7.0A\INCLUDE\MSXML.H
C:\PROGRAM FILES (X86)\MICROSOFT SDKS\WINDOWS\V7.0A\INCLUDE\OAIDL.H
C:\PROGRAM FILES (X86)\MICROSOFT SDKS\WINDOWS\V7.0A\INCLUDE\PROPIDL.H
C:\PROGRAM FILES (X86)\MICROSOFT SDKS\WINDOWS\V7.0A\INCLUDE\OLEAUTO.H
C:\PROGRAM FILES (X86)\MICROSOFT SDKS\WINDOWS\V7.0A\INCLUDE\COMMDLG.H
C:\PROGRAM FILES (X86)\MICROSOFT SDKS\WINDOWS\V7.0A\INCLUDE\STRALIGN.H
C:\PROGRAM FILES (X86)\MICROSOFT SDKS\WINDOWS\V7.0A\INCLUDE\WINSVC.H
C:\PROGRAM FILES (X86)\MICROSOFT SDKS\WINDOWS\V7.0A\INCLUDE\MCX.H
C:\PROGRAM FILES (X86)\MICROSOFT SDKS\WINDOWS\V7.0A\INCLUDE\IMM.H
C:\PROGRAM FILES (X86)\MICROSOFT SDKS\WINDOWS\V7.0A\INCLUDE\IME_CMODES.H
C:\PROGRAM FILES (X86)\MICROSOFT VISUAL STUDIO 10.0\VC\INCLUDE\STDIO.H
C:\PROGRAM FILES (X86)\MICROSOFT VISUAL STUDIO 10.0\VC\INCLUDE\SWPRINTF.INL
C:\PROGRAM FILES (X86)\MICROSOFT VISUAL STUDIO 10.0\VC\INCLUDE\MATH.H
D:\USC_STUDY\CSCI580_3D_GRAPHICS_RENDERING\CHINESEPAINTINGMAIN\CHINESEPAINTINGMAIN\CHINESE_PAINTING\SHADER.HPP
D:\USC_STUDY\CSCI580_3D_GRAPHICS_RENDERING\CHINESEPAINTINGMAIN\CHINESEPAINTINGMAIN\CHINESE_PAINTING\GLEW\GLEW.H
C:\PROGRAM FILES (X86)\MICROSOFT SDKS\WINDOWS\V7.0A\INCLUDE\GL\GLU.H
C:\PROGRAM FILES (X86)\MICROSOFT SDKS\WINDOWS\V7.0A\INCLUDE\GL\GL.H
D:\USC_STUDY\CSCI580_3D_GRAPHICS_RENDERING\CHINESEPAINTINGMAIN\CHINESEPAINTINGMAIN\CHINESE_PAINTING\GLUT\GLUT.H
D:\USC_STUDY\CSCI580_3D_GRAPHICS_RENDERING\CHINESEPAINTINGMAIN\CHINESEPAINTINGMAIN\CHINESE_PAINTING\GLM\GLM.HPP
D:\USC_STUDY\CSCI580_3D_GRAPHICS_RENDERING\CHINESEPAINTINGMAIN\CHINESEPAINTINGMAIN\CHINESE_PAINTING\GLM\CORE\_FIXES.HPP
C:\PROGRAM FILES (X86)\MICROSOFT VISUAL STUDIO 10.0\VC\INCLUDE\CMATH
C:\PROGRAM FILES (X86)\MICROSOFT VISUAL STUDIO 10.0\VC\INCLUDE\YVALS.H
C:\PROGRAM FILES (X86)\MICROSOFT VISUAL STUDIO 10.0\VC\INCLUDE\USE_ANSI.H
C:\PROGRAM FILES (X86)\MICROSOFT VISUAL STUDIO 10.0\VC\INCLUDE\CLIMITS
C:\PROGRAM FILES (X86)\MICROSOFT VISUAL STUDIO 10.0\VC\INCLUDE\CFLOAT
C:\PROGRAM FILES (X86)\MICROSOFT VISUAL STUDIO 10.0\VC\INCLUDE\FLOAT.H
C:\PROGRAM FILES (X86)\MICROSOFT VISUAL STUDIO 10.0\VC\INCLUDE\CRTWRN.H
C:\PROGRAM FILES (X86)\MICROSOFT VISUAL STUDIO 10.0\VC\INCLUDE\LIMITS
C:\PROGRAM FILES (X86)\MICROSOFT VISUAL STUDIO 10.0\VC\INCLUDE\YMATH.H
C:\PROGRAM FILES (X86)\MICROSOFT VISUAL STUDIO 10.0\VC\INCLUDE\CWCHAR
C:\PROGRAM FILES (X86)\MICROSOFT VISUAL STUDIO 10.0\VC\INCLUDE\WCHAR.H
C:\PROGRAM FILES (X86)\MICROSOFT VISUAL STUDIO 10.0\VC\INCLUDE\WTIME.INL
C:\PROGRAM FILES (X86)\MICROSOFT VISUAL STUDIO 10.0\VC\INCLUDE\XSTDDEF
C:\PROGRAM FILES (X86)\MICROSOFT VISUAL STUDIO 10.0\VC\INCLUDE\CSTDDEF
C:\PROGRAM FILES (X86)\MICROSOFT VISUAL STUDIO 10.0\VC\INCLUDE\STDDEF.H
C:\PROGRAM FILES (X86)\MICROSOFT VISUAL STUDIO 10.0\VC\INCLUDE\CSTDIO
D:\USC_STUDY\CSCI580_3D_GRAPHICS_RENDERING\CHINESEPAINTINGMAIN\CHINESEPAINTINGMAIN\CHINESE_PAINTING\GLM\CORE\SETUP.HPP
C:\PROGRAM FILES (X86)\MICROSOFT VISUAL STUDIO 10.0\VC\INCLUDE\PMMINTRIN.H
C:\PROGRAM FILES (X86)\MICROSOFT VISUAL STUDIO 10.0\VC\INCLUDE\EMMINTRIN.H
C:\PROGRAM FILES (X86)\MICROSOFT VISUAL STUDIO 10.0\VC\INCLUDE\XMMINTRIN.H
C:\PROGRAM FILES (X86)\MICROSOFT VISUAL STUDIO 10.0\VC\INCLUDE\MMINTRIN.H
C:\PROGRAM FILES (X86)\MICROSOFT VISUAL STUDIO 10.0\VC\INCLUDE\MALLOC.H
D:\USC_STUDY\CSCI580_3D_GRAPHICS_RENDERING\CHINESEPAINTINGMAIN\CHINESEPAINTINGMAIN\CHINESE_PAINTING\GLM\CORE\_DETAIL.HPP
C:\PROGRAM FILES (X86)\MICROSOFT VISUAL STUDIO 10.0\VC\INCLUDE\CASSERT
C:\PROGRAM FILES (X86)\MICROSOFT VISUAL STUDIO 10.0\VC\INCLUDE\ASSERT.H
D:\USC_STUDY\CSCI580_3D_GRAPHICS_RENDERING\CHINESEPAINTINGMAIN\CHINESEPAINTINGMAIN\CHINESE_PAINTING\GLM\CORE\_VECTORIZE.HPP
D:\USC_STUDY\CSCI580_3D_GRAPHICS_RENDERING\CHINESEPAINTINGMAIN\CHINESEPAINTINGMAIN\CHINESE_PAINTING\GLM\CORE\TYPE.HPP
D:\USC_STUDY\CSCI580_3D_GRAPHICS_RENDERING\CHINESEPAINTINGMAIN\CHINESEPAINTINGMAIN\CHINESE_PAINTING\GLM\CORE\TYPE_HALF.HPP
C:\PROGRAM FILES (X86)\MICROSOFT VISUAL STUDIO 10.0\VC\INCLUDE\CSTDLIB
D:\USC_STUDY\CSCI580_3D_GRAPHICS_RENDERING\CHINESEPAINTINGMAIN\CHINESEPAINTINGMAIN\CHINESE_PAINTING\GLM\CORE\TYPE_HALF.INL
D:\USC_STUDY\CSCI580_3D_GRAPHICS_RENDERING\CHINESEPAINTINGMAIN\CHINESEPAINTINGMAIN\CHINESE_PAINTING\GLM\CORE\TYPE_FLOAT.HPP
D:\USC_STUDY\CSCI580_3D_GRAPHICS_RENDERING\CHINESEPAINTINGMAIN\CHINESEPAINTINGMAIN\CHINESE_PAINTING\GLM\CORE\TYPE_INT.HPP
D:\USC_STUDY\CSCI580_3D_GRAPHICS_RENDERING\CHINESEPAINTINGMAIN\CHINESEPAINTINGMAIN\CHINESE_PAINTING\GLM\CORE\TYPE_GENTYPE.HPP
D:\USC_STUDY\CSCI580_3D_GRAPHICS_RENDERING\CHINESEPAINTINGMAIN\CHINESEPAINTINGMAIN\CHINESE_PAINTING\GLM\CORE\TYPE_SIZE.HPP
D:\USC_STUDY\CSCI580_3D_GRAPHICS_RENDERING\CHINESEPAINTINGMAIN\CHINESEPAINTINGMAIN\CHINESE_PAINTING\GLM\CORE\TYPE_VEC1.HPP
D:\USC_STUDY\CSCI580_3D_GRAPHICS_RENDERING\CHINESEPAINTINGMAIN\CHINESEPAINTINGMAIN\CHINESE_PAINTING\GLM\CORE\TYPE_VEC.HPP
D:\USC_STUDY\CSCI580_3D_GRAPHICS_RENDERING\CHINESEPAINTINGMAIN\CHINESEPAINTINGMAIN\CHINESE_PAINTING\GLM\CORE\_SWIZZLE.HPP
D:\USC_STUDY\CSCI580_3D_GRAPHICS_RENDERING\CHINESEPAINTINGMAIN\CHINESEPAINTINGMAIN\CHINESE_PAINTING\GLM\CORE\_SWIZZLE_FUNC.HPP
D:\USC_STUDY\CSCI580_3D_GRAPHICS_RENDERING\CHINESEPAINTINGMAIN\CHINESEPAINTINGMAIN\CHINESE_PAINTING\GLM\CORE\TYPE_VEC1.INL
D:\USC_STUDY\CSCI580_3D_GRAPHICS_RENDERING\CHINESEPAINTINGMAIN\CHINESEPAINTINGMAIN\CHINESE_PAINTING\GLM\CORE\TYPE_VEC2.HPP
D:\USC_STUDY\CSCI580_3D_GRAPHICS_RENDERING\CHINESEPAINTINGMAIN\CHINESEPAINTINGMAIN\CHINESE_PAINTING\GLM\CORE\TYPE_VEC2.INL
D:\USC_STUDY\CSCI580_3D_GRAPHICS_RENDERING\CHINESEPAINTINGMAIN\CHINESEPAINTINGMAIN\CHINESE_PAINTING\GLM\CORE\TYPE_VEC3.HPP
D:\USC_STUDY\CSCI580_3D_GRAPHICS_RENDERING\CHINESEPAINTINGMAIN\CHINESEPAINTINGMAIN\CHINESE_PAINTING\GLM\CORE\TYPE_VEC3.INL
D:\USC_STUDY\CSCI580_3D_GRAPHICS_RENDERING\CHINESEPAINTINGMAIN\CHINESEPAINTINGMAIN\CHINESE_PAINTING\GLM\CORE\TYPE_VEC4.HPP
D:\USC_STUDY\CSCI580_3D_GRAPHICS_RENDERING\CHINESEPAINTINGMAIN\CHINESEPAINTINGMAIN\CHINESE_PAINTING\GLM\CORE\TYPE_VEC4.INL
D:\USC_STUDY\CSCI580_3D_GRAPHICS_RENDERING\CHINESEPAINTINGMAIN\CHINESEPAINTINGMAIN\CHINESE_PAINTING\GLM\CORE\TYPE_MAT2X2.HPP
D:\USC_STUDY\CSCI580_3D_GRAPHICS_RENDERING\CHINESEPAINTINGMAIN\CHINESEPAINTINGMAIN\CHINESE_PAINTING\GLM\CORE\TYPE_MAT.HPP
D:\USC_STUDY\CSCI580_3D_GRAPHICS_RENDERING\CHINESEPAINTINGMAIN\CHINESEPAINTINGMAIN\CHINESE_PAINTING\GLM\CORE\TYPE_MAT2X2.INL
D:\USC_STUDY\CSCI580_3D_GRAPHICS_RENDERING\CHINESEPAINTINGMAIN\CHINESEPAINTINGMAIN\CHINESE_PAINTING\GLM\CORE\TYPE_MAT2X3.HPP
D:\USC_STUDY\CSCI580_3D_GRAPHICS_RENDERING\CHINESEPAINTINGMAIN\CHINESEPAINTINGMAIN\CHINESE_PAINTING\GLM\CORE\TYPE_MAT2X3.INL
D:\USC_STUDY\CSCI580_3D_GRAPHICS_RENDERING\CHINESEPAINTINGMAIN\CHINESEPAINTINGMAIN\CHINESE_PAINTING\GLM\CORE\TYPE_MAT2X4.HPP
D:\USC_STUDY\CSCI580_3D_GRAPHICS_RENDERING\CHINESEPAINTINGMAIN\CHINESEPAINTINGMAIN\CHINESE_PAINTING\GLM\CORE\TYPE_MAT2X4.INL
D:\USC_STUDY\CSCI580_3D_GRAPHICS_RENDERING\CHINESEPAINTINGMAIN\CHINESEPAINTINGMAIN\CHINESE_PAINTING\GLM\CORE\TYPE_MAT3X2.HPP
D:\USC_STUDY\CSCI580_3D_GRAPHICS_RENDERING\CHINESEPAINTINGMAIN\CHINESEPAINTINGMAIN\CHINESE_PAINTING\GLM\CORE\TYPE_MAT3X2.INL
D:\USC_STUDY\CSCI580_3D_GRAPHICS_RENDERING\CHINESEPAINTINGMAIN\CHINESEPAINTINGMAIN\CHINESE_PAINTING\GLM\CORE\TYPE_MAT3X3.HPP
D:\USC_STUDY\CSCI580_3D_GRAPHICS_RENDERING\CHINESEPAINTINGMAIN\CHINESEPAINTINGMAIN\CHINESE_PAINTING\GLM\CORE\TYPE_MAT3X3.INL
D:\USC_STUDY\CSCI580_3D_GRAPHICS_RENDERING\CHINESEPAINTINGMAIN\CHINESEPAINTINGMAIN\CHINESE_PAINTING\GLM\CORE\TYPE_MAT3X4.HPP
D:\USC_STUDY\CSCI580_3D_GRAPHICS_RENDERING\CHINESEPAINTINGMAIN\CHINESEPAINTINGMAIN\CHINESE_PAINTING\GLM\CORE\TYPE_MAT3X4.INL
D:\USC_STUDY\CSCI580_3D_GRAPHICS_RENDERING\CHINESEPAINTINGMAIN\CHINESEPAINTINGMAIN\CHINESE_PAINTING\GLM\CORE\TYPE_MAT4X2.HPP
D:\USC_STUDY\CSCI580_3D_GRAPHICS_RENDERING\CHINESEPAINTINGMAIN\CHINESEPAINTINGMAIN\CHINESE_PAINTING\GLM\CORE\TYPE_MAT4X2.INL
D:\USC_STUDY\CSCI580_3D_GRAPHICS_RENDERING\CHINESEPAINTINGMAIN\CHINESEPAINTINGMAIN\CHINESE_PAINTING\GLM\CORE\TYPE_MAT4X3.HPP
D:\USC_STUDY\CSCI580_3D_GRAPHICS_RENDERING\CHINESEPAINTINGMAIN\CHINESEPAINTINGMAIN\CHINESE_PAINTING\GLM\CORE\TYPE_MAT4X3.INL
D:\USC_STUDY\CSCI580_3D_GRAPHICS_RENDERING\CHINESEPAINTINGMAIN\CHINESEPAINTINGMAIN\CHINESE_PAINTING\GLM\CORE\TYPE_MAT4X4.HPP
D:\USC_STUDY\CSCI580_3D_GRAPHICS_RENDERING\CHINESEPAINTINGMAIN\CHINESEPAINTINGMAIN\CHINESE_PAINTING\GLM\CORE\TYPE_MAT4X4.INL
D:\USC_STUDY\CSCI580_3D_GRAPHICS_RENDERING\CHINESEPAINTINGMAIN\CHINESEPAINTINGMAIN\CHINESE_PAINTING\GLM\CORE\FUNC_TRIGONOMETRIC.HPP
D:\USC_STUDY\CSCI580_3D_GRAPHICS_RENDERING\CHINESEPAINTINGMAIN\CHINESEPAINTINGMAIN\CHINESE_PAINTING\GLM\CORE\FUNC_TRIGONOMETRIC.INL
D:\USC_STUDY\CSCI580_3D_GRAPHICS_RENDERING\CHINESEPAINTINGMAIN\CHINESEPAINTINGMAIN\CHINESE_PAINTING\GLM\CORE\FUNC_EXPONENTIAL.HPP
D:\USC_STUDY\CSCI580_3D_GRAPHICS_RENDERING\CHINESEPAINTINGMAIN\CHINESEPAINTINGMAIN\CHINESE_PAINTING\GLM\CORE\FUNC_EXPONENTIAL.INL
D:\USC_STUDY\CSCI580_3D_GRAPHICS_RENDERING\CHINESEPAINTINGMAIN\CHINESEPAINTINGMAIN\CHINESE_PAINTING\GLM\CORE\FUNC_COMMON.HPP
D:\USC_STUDY\CSCI580_3D_GRAPHICS_RENDERING\CHINESEPAINTINGMAIN\CHINESEPAINTINGMAIN\CHINESE_PAINTING\GLM\CORE\FUNC_COMMON.INL
D:\USC_STUDY\CSCI580_3D_GRAPHICS_RENDERING\CHINESEPAINTINGMAIN\CHINESEPAINTINGMAIN\CHINESE_PAINTING\GLM\CORE\FUNC_PACKING.HPP
D:\USC_STUDY\CSCI580_3D_GRAPHICS_RENDERING\CHINESEPAINTINGMAIN\CHINESEPAINTINGMAIN\CHINESE_PAINTING\GLM\CORE\FUNC_PACKING.INL
D:\USC_STUDY\CSCI580_3D_GRAPHICS_RENDERING\CHINESEPAINTINGMAIN\CHINESEPAINTINGMAIN\CHINESE_PAINTING\GLM\CORE\FUNC_GEOMETRIC.HPP
D:\USC_STUDY\CSCI580_3D_GRAPHICS_RENDERING\CHINESEPAINTINGMAIN\CHINESEPAINTINGMAIN\CHINESE_PAINTING\GLM\CORE\FUNC_GEOMETRIC.INL
D:\USC_STUDY\CSCI580_3D_GRAPHICS_RENDERING\CHINESEPAINTINGMAIN\CHINESEPAINTINGMAIN\CHINESE_PAINTING\GLM\CORE\FUNC_MATRIX.HPP
D:\USC_STUDY\CSCI580_3D_GRAPHICS_RENDERING\CHINESEPAINTINGMAIN\CHINESEPAINTINGMAIN\CHINESE_PAINTING\GLM\CORE\FUNC_MATRIX.INL
D:\USC_STUDY\CSCI580_3D_GRAPHICS_RENDERING\CHINESEPAINTINGMAIN\CHINESEPAINTINGMAIN\CHINESE_PAINTING\GLM\CORE\FUNC_VECTOR_RELATIONAL.HPP
D:\USC_STUDY\CSCI580_3D_GRAPHICS_RENDERING\CHINESEPAINTINGMAIN\CHINESEPAINTINGMAIN\CHINESE_PAINTING\GLM\CORE\FUNC_VECTOR_RELATIONAL.INL
D:\USC_STUDY\CSCI580_3D_GRAPHICS_RENDERING\CHINESEPAINTINGMAIN\CHINESEPAINTINGMAIN\CHINESE_PAINTING\GLM\CORE\FUNC_INTEGER.HPP
D:\USC_STUDY\CSCI580_3D_GRAPHICS_RENDERING\CHINESEPAINTINGMAIN\CHINESEPAINTINGMAIN\CHINESE_PAINTING\GLM\CORE\FUNC_INTEGER.INL
C:\PROGRAM FILES (X86)\MICROSOFT VISUAL STUDIO 10.0\VC\INCLUDE\INTRIN.H
C:\PROGRAM FILES (X86)\MICROSOFT VISUAL STUDIO 10.0\VC\INCLUDE\SETJMP.H
C:\PROGRAM FILES (X86)\MICROSOFT VISUAL STUDIO 10.0\VC\INCLUDE\IMMINTRIN.H
C:\PROGRAM FILES (X86)\MICROSOFT VISUAL STUDIO 10.0\VC\INCLUDE\WMMINTRIN.H
C:\PROGRAM FILES (X86)\MICROSOFT VISUAL STUDIO 10.0\VC\INCLUDE\NMMINTRIN.H
C:\PROGRAM FILES (X86)\MICROSOFT VISUAL STUDIO 10.0\VC\INCLUDE\SMMINTRIN.H
C:\PROGRAM FILES (X86)\MICROSOFT VISUAL STUDIO 10.0\VC\INCLUDE\TMMINTRIN.H
C:\PROGRAM FILES (X86)\MICROSOFT VISUAL STUDIO 10.0\VC\INCLUDE\MM3DNOW.H
D:\USC_STUDY\CSCI580_3D_GRAPHICS_RENDERING\CHINESEPAINTINGMAIN\CHINESEPAINTINGMAIN\CHINESE_PAINTING\GLM\CORE\FUNC_NOISE.HPP
D:\USC_STUDY\CSCI580_3D_GRAPHICS_RENDERING\CHINESEPAINTINGMAIN\CHINESEPAINTINGMAIN\CHINESE_PAINTING\GLM\CORE\FUNC_NOISE.INL
D:\USC_STUDY\CSCI580_3D_GRAPHICS_RENDERING\CHINESEPAINTINGMAIN\CHINESEPAINTINGMAIN\CHINESE_PAINTING\GLM\GTC\MATRIX_TRANSFORM.HPP
D:\USC_STUDY\CSCI580_3D_GRAPHICS_RENDERING\CHINESEPAINTINGMAIN\CHINESEPAINTINGMAIN\CHINESE_PAINTING\GLM\GTC\MATRIX_TRANSFORM.INL
D:\USC_STUDY\CSCI580_3D_GRAPHICS_RENDERING\CHINESEPAINTINGMAIN\CHINESEPAINTINGMAIN\CHINESE_PAINTING\INPUT.H
D:\USC_STUDY\CSCI580_3D_GRAPHICS_RENDERING\CHINESEPAINTINGMAIN\CHINESEPAINTINGMAIN\CHINESE_PAINTING\MESHIO.H
D:\USC_STUDY\CSCI580_3D_GRAPHICS_RENDERING\CHINESEPAINTINGMAIN\CHINESEPAINTINGMAIN\CHINESE_PAINTING\MESH.H
D:\USC_STUDY\CSCI580_3D_GRAPHICS_RENDERING\CHINESEPAINTINGMAIN\CHINESEPAINTINGMAIN\CHINESE_PAINTING\PLY.H
C:\PROGRAM FILES (X86)\MICROSOFT VISUAL STUDIO 10.0\VC\BIN\1033\CLUI.DLL
C:\WINDOWS\GLOBALIZATION\SORTING\SORTDEFAULT.NLS
C:\WINDOWS\SYSTEM32\TZRES.DLL
C:\PROGRAM FILES (X86)\MICROSOFT VISUAL STUDIO 10.0\COMMON7\IDE\MSPDBSRV.EXE
D:\USC_STUDY\CSCI580_3D_GRAPHICS_RENDERING\CHINESEPAINTINGMAIN\CHINESEPAINTINGMAIN\CHINESE_PAINTING\TEXTUREIO.H
D:\USC_STUDY\CSCI580_3D_GRAPHICS_RENDERING\CHINESEPAINTINGMAIN\CHINESEPAINTINGMAIN\CHINESE_PAINTING\GLEW\WGLEW.H
^D:\USC_STUDY\CSCI580_3D_GRAPHICS_RENDERING\CHINESEPAINTINGMAIN\CHINESEPAINTINGMAIN\CHINESE_PAINTING\PLY.C
C:\PROGRAM FILES (X86)\MICROSOFT VISUAL STUDIO 10.0\VC\BIN\1033\CLUI.DLL
C:\WINDOWS\GLOBALIZATION\SORTING\SORTDEFAULT.NLS
C:\WINDOWS\SYSTEM32\TZRES.DLL
C:\PROGRAM FILES (X86)\MICROSOFT VISUAL STUDIO 10.0\VC\INCLUDE\STDIO.H
C:\PROGRAM FILES (X86)\MICROSOFT VISUAL STUDIO 10.0\VC\INCLUDE\CRTDEFS.H
C:\PROGRAM FILES (X86)\MICROSOFT VISUAL STUDIO 10.0\VC\INCLUDE\SAL.H
C:\PROGRAM FILES (X86)\MICROSOFT VISUAL STUDIO 10.0\VC\INCLUDE\CODEANALYSIS\SOURCEANNOTATIONS.H
C:\PROGRAM FILES (X86)\MICROSOFT VISUAL STUDIO 10.0\VC\INCLUDE\VADEFS.H
C:\PROGRAM FILES (X86)\MICROSOFT VISUAL STUDIO 10.0\VC\INCLUDE\SWPRINTF.INL
C:\PROGRAM FILES (X86)\MICROSOFT VISUAL STUDIO 10.0\VC\INCLUDE\STDLIB.H
C:\PROGRAM FILES (X86)\MICROSOFT VISUAL STUDIO 10.0\VC\INCLUDE\LIMITS.H
C:\PROGRAM FILES (X86)\MICROSOFT VISUAL STUDIO 10.0\VC\INCLUDE\MATH.H
C:\PROGRAM FILES (X86)\MICROSOFT VISUAL STUDIO 10.0\VC\INCLUDE\STRING.H
D:\USC_STUDY\CSCI580_3D_GRAPHICS_RENDERING\CHINESEPAINTINGMAIN\CHINESEPAINTINGMAIN\CHINESE_PAINTING\PLY.H
C:\PROGRAM FILES (X86)\MICROSOFT VISUAL STUDIO 10.0\VC\INCLUDE\STDDEF.H
^D:\USC_STUDY\CSCI580_3D_GRAPHICS_RENDERING\CHINESEPAINTINGMAIN\CHINESEPAINTINGMAIN\CHINESE_PAINTING\TEXTUREIO.CPP
D:\USC_STUDY\CSCI580_3D_GRAPHICS_RENDERING\CHINESEPAINTINGMAIN\CHINESEPAINTINGMAIN\CHINESE_PAINTING\TEXTUREIO.H
D:\USC_STUDY\CSCI580_3D_GRAPHICS_RENDERING\CHINESEPAINTINGMAIN\CHINESEPAINTINGMAIN\CHINESE_PAINTING\GLEW\GLEW.H
C:\PROGRAM FILES (X86)\MICROSOFT SDKS\WINDOWS\V7.0A\INCLUDE\GL\GLU.H
C:\PROGRAM FILES (X86)\MICROSOFT SDKS\WINDOWS\V7.0A\INCLUDE\GL\GL.H
C:\PROGRAM FILES (X86)\MICROSOFT VISUAL STUDIO 10.0\VC\BIN\1033\CLUI.DLL
C:\WINDOWS\GLOBALIZATION\SORTING\SORTDEFAULT.NLS
C:\WINDOWS\SYSTEM32\TZRES.DLL
C:\PROGRAM FILES (X86)\MICROSOFT VISUAL STUDIO 10.0\VC\INCLUDE\STDIO.H
C:\PROGRAM FILES (X86)\MICROSOFT VISUAL STUDIO 10.0\VC\INCLUDE\CRTDEFS.H
C:\PROGRAM FILES (X86)\MICROSOFT VISUAL STUDIO 10.0\VC\INCLUDE\SAL.H
C:\PROGRAM FILES (X86)\MICROSOFT VISUAL STUDIO 10.0\VC\INCLUDE\CODEANALYSIS\SOURCEANNOTATIONS.H
C:\PROGRAM FILES (X86)\MICROSOFT VISUAL STUDIO 10.0\VC\INCLUDE\VADEFS.H
C:\PROGRAM FILES (X86)\MICROSOFT VISUAL STUDIO 10.0\VC\INCLUDE\SWPRINTF.INL
C:\PROGRAM FILES (X86)\MICROSOFT VISUAL STUDIO 10.0\VC\INCLUDE\STDLIB.H
C:\PROGRAM FILES (X86)\MICROSOFT VISUAL STUDIO 10.0\VC\INCLUDE\LIMITS.H
C:\PROGRAM FILES (X86)\MICROSOFT VISUAL STUDIO 10.0\VC\INCLUDE\STRING.H
^C:\_DOCUMENTS\_DOCUMENTS\_3DRENDERING\PROJECT\CHINESEPAINTINGMAIN\CHINESE_PAINTING\TEXTUREIO.CPP
C:\_DOCUMENTS\_DOCUMENTS\_3DRENDERING\PROJECT\CHINESEPAINTINGMAIN\CHINESE_PAINTING\TEXTUREIO.H
C:\_SOFTWAREROOTS\MICROSOFT VISUAL STUDIO 10.0\VC\INCLUDE\STDIO.H
C:\_SOFTWAREROOTS\MICROSOFT VISUAL STUDIO 10.0\VC\INCLUDE\CRTDEFS.H
C:\_SOFTWAREROOTS\MICROSOFT VISUAL STUDIO 10.0\VC\INCLUDE\SAL.H
C:\_SOFTWAREROOTS\MICROSOFT VISUAL STUDIO 10.0\VC\INCLUDE\CODEANALYSIS\SOURCEANNOTATIONS.H
C:\_SOFTWAREROOTS\MICROSOFT VISUAL STUDIO 10.0\VC\INCLUDE\VADEFS.H
C:\_SOFTWAREROOTS\MICROSOFT VISUAL STUDIO 10.0\VC\INCLUDE\SWPRINTF.INL
C:\_SOFTWAREROOTS\MICROSOFT VISUAL STUDIO 10.0\VC\INCLUDE\STDLIB.H
C:\_SOFTWAREROOTS\MICROSOFT VISUAL STUDIO 10.0\VC\INCLUDE\LIMITS.H
C:\_SOFTWAREROOTS\MICROSOFT VISUAL STUDIO 10.0\VC\INCLUDE\STRING.H
C:\_DOCUMENTS\_DOCUMENTS\_3DRENDERING\PROJECT\CHINESEPAINTINGMAIN\CHINESE_PAINTING\GLEW\GLEW.H
C:\PROGRAM FILES (X86)\MICROSOFT SDKS\WINDOWS\V7.0A\INCLUDE\GL\GLU.H
C:\PROGRAM FILES (X86)\MICROSOFT SDKS\WINDOWS\V7.0A\INCLUDE\GL\GL.H
^C:\_DOCUMENTS\_DOCUMENTS\_3DRENDERING\PROJECT\CHINESEPAINTINGMAIN\CHINESE_PAINTING\SHADER.CPP
C:\_SOFTWAREROOTS\MICROSOFT VISUAL STUDIO 10.0\VC\INCLUDE\STDIO.H
C:\_SOFTWAREROOTS\MICROSOFT VISUAL STUDIO 10.0\VC\INCLUDE\CRTDEFS.H
C:\_SOFTWAREROOTS\MICROSOFT VISUAL STUDIO 10.0\VC\INCLUDE\SAL.H
C:\_SOFTWAREROOTS\MICROSOFT VISUAL STUDIO 10.0\VC\INCLUDE\CODEANALYSIS\SOURCEANNOTATIONS.H
C:\_SOFTWAREROOTS\MICROSOFT VISUAL STUDIO 10.0\VC\INCLUDE\VADEFS.H
C:\_SOFTWAREROOTS\MICROSOFT VISUAL STUDIO 10.0\VC\INCLUDE\SWPRINTF.INL
C:\_SOFTWAREROOTS\MICROSOFT VISUAL STUDIO 10.0\VC\INCLUDE\STRING
C:\_SOFTWAREROOTS\MICROSOFT VISUAL STUDIO 10.0\VC\INCLUDE\ISTREAM
C:\_SOFTWAREROOTS\MICROSOFT VISUAL STUDIO 10.0\VC\INCLUDE\OSTREAM
C:\_SOFTWAREROOTS\MICROSOFT VISUAL STUDIO 10.0\VC\INCLUDE\IOS
C:\_SOFTWAREROOTS\MICROSOFT VISUAL STUDIO 10.0\VC\INCLUDE\XLOCNUM
C:\_SOFTWAREROOTS\MICROSOFT VISUAL STUDIO 10.0\VC\INCLUDE\CLIMITS
C:\_SOFTWAREROOTS\MICROSOFT VISUAL STUDIO 10.0\VC\INCLUDE\YVALS.H
C:\_SOFTWAREROOTS\MICROSOFT VISUAL STUDIO 10.0\VC\INCLUDE\USE_ANSI.H
C:\_SOFTWAREROOTS\MICROSOFT VISUAL STUDIO 10.0\VC\INCLUDE\LIMITS.H
C:\_SOFTWAREROOTS\MICROSOFT VISUAL STUDIO 10.0\VC\INCLUDE\CMATH
C:\_SOFTWAREROOTS\MICROSOFT VISUAL STUDIO 10.0\VC\INCLUDE\MATH.H
C:\_SOFTWAREROOTS\MICROSOFT VISUAL STUDIO 10.0\VC\INCLUDE\CSTDIO
C:\_SOFTWAREROOTS\MICROSOFT VISUAL STUDIO 10.0\VC\INCLUDE\CSTDLIB
C:\_SOFTWAREROOTS\MICROSOFT VISUAL STUDIO 10.0\VC\INCLUDE\STDLIB.H
C:\_SOFTWAREROOTS\MICROSOFT VISUAL STUDIO 10.0\VC\INCLUDE\STREAMBUF
C:\_SOFTWAREROOTS\MICROSOFT VISUAL STUDIO 10.0\VC\INCLUDE\XIOSBASE
C:\_SOFTWAREROOTS\MICROSOFT VISUAL STUDIO 10.0\VC\INCLUDE\XLOCALE
C:\_SOFTWAREROOTS\MICROSOFT VISUAL STUDIO 10.0\VC\INCLUDE\CSTRING
C:\_SOFTWAREROOTS\MICROSOFT VISUAL STUDIO 10.0\VC\INCLUDE\STRING.H
C:\_SOFTWAREROOTS\MICROSOFT VISUAL STUDIO 10.0\VC\INCLUDE\STDEXCEPT
C:\_SOFTWAREROOTS\MICROSOFT VISUAL STUDIO 10.0\VC\INCLUDE\EXCEPTION
C:\_SOFTWAREROOTS\MICROSOFT VISUAL STUDIO 10.0\VC\INCLUDE\XSTDDEF
C:\_SOFTWAREROOTS\MICROSOFT VISUAL STUDIO 10.0\VC\INCLUDE\CSTDDEF
C:\_SOFTWAREROOTS\MICROSOFT VISUAL STUDIO 10.0\VC\INCLUDE\STDDEF.H
C:\_SOFTWAREROOTS\MICROSOFT VISUAL STUDIO 10.0\VC\INCLUDE\EH.H
C:\_SOFTWAREROOTS\MICROSOFT VISUAL STUDIO 10.0\VC\INCLUDE\MALLOC.H
C:\_SOFTWAREROOTS\MICROSOFT VISUAL STUDIO 10.0\VC\INCLUDE\XSTRING
C:\_SOFTWAREROOTS\MICROSOFT VISUAL STUDIO 10.0\VC\INCLUDE\XMEMORY
C:\_SOFTWAREROOTS\MICROSOFT VISUAL STUDIO 10.0\VC\INCLUDE\NEW
C:\_SOFTWAREROOTS\MICROSOFT VISUAL STUDIO 10.0\VC\INCLUDE\XUTILITY
C:\_SOFTWAREROOTS\MICROSOFT VISUAL STUDIO 10.0\VC\INCLUDE\UTILITY
C:\_SOFTWAREROOTS\MICROSOFT VISUAL STUDIO 10.0\VC\INCLUDE\IOSFWD
C:\_SOFTWAREROOTS\MICROSOFT VISUAL STUDIO 10.0\VC\INCLUDE\CWCHAR
C:\_SOFTWAREROOTS\MICROSOFT VISUAL STUDIO 10.0\VC\INCLUDE\WCHAR.H
C:\_SOFTWAREROOTS\MICROSOFT VISUAL STUDIO 10.0\VC\INCLUDE\WTIME.INL
C:\_SOFTWAREROOTS\MICROSOFT VISUAL STUDIO 10.0\VC\INCLUDE\CRTDBG.H
C:\_SOFTWAREROOTS\MICROSOFT VISUAL STUDIO 10.0\VC\INCLUDE\TYPE_TRAITS
C:\_SOFTWAREROOTS\MICROSOFT VISUAL STUDIO 10.0\VC\INCLUDE\LIMITS
C:\_SOFTWAREROOTS\MICROSOFT VISUAL STUDIO 10.0\VC\INCLUDE\YMATH.H
C:\_SOFTWAREROOTS\MICROSOFT VISUAL STUDIO 10.0\VC\INCLUDE\CFLOAT
C:\_SOFTWAREROOTS\MICROSOFT VISUAL STUDIO 10.0\VC\INCLUDE\FLOAT.H
C:\_SOFTWAREROOTS\MICROSOFT VISUAL STUDIO 10.0\VC\INCLUDE\CRTWRN.H
C:\_SOFTWAREROOTS\MICROSOFT VISUAL STUDIO 10.0\VC\INCLUDE\XTR1COMMON
C:\_SOFTWAREROOTS\MICROSOFT VISUAL STUDIO 10.0\VC\INCLUDE\XFWRAP
C:\_SOFTWAREROOTS\MICROSOFT VISUAL STUDIO 10.0\VC\INCLUDE\XFWRAP1
C:\_SOFTWAREROOTS\MICROSOFT VISUAL STUDIO 10.0\VC\INCLUDE\XXTYPE_TRAITS
C:\_SOFTWAREROOTS\MICROSOFT VISUAL STUDIO 10.0\VC\INCLUDE\TYPEINFO
C:\_SOFTWAREROOTS\MICROSOFT VISUAL STUDIO 10.0\VC\INCLUDE\XLOCINFO
C:\_SOFTWAREROOTS\MICROSOFT VISUAL STUDIO 10.0\VC\INCLUDE\XLOCINFO.H
C:\_SOFTWAREROOTS\MICROSOFT VISUAL STUDIO 10.0\VC\INCLUDE\CTYPE.H
C:\_SOFTWAREROOTS\MICROSOFT VISUAL STUDIO 10.0\VC\INCLUDE\LOCALE.H
C:\_SOFTWAREROOTS\MICROSOFT VISUAL STUDIO 10.0\VC\INCLUDE\XDEBUG
C:\_SOFTWAREROOTS\MICROSOFT VISUAL STUDIO 10.0\VC\INCLUDE\SYSTEM_ERROR
C:\_SOFTWAREROOTS\MICROSOFT VISUAL STUDIO 10.0\VC\INCLUDE\CERRNO
C:\_SOFTWAREROOTS\MICROSOFT VISUAL STUDIO 10.0\VC\INCLUDE\ERRNO.H
C:\_SOFTWAREROOTS\MICROSOFT VISUAL STUDIO 10.0\VC\INCLUDE\SHARE.H
C:\_SOFTWAREROOTS\MICROSOFT VISUAL STUDIO 10.0\VC\INCLUDE\VECTOR
C:\_SOFTWAREROOTS\MICROSOFT VISUAL STUDIO 10.0\VC\INCLUDE\MEMORY
C:\_SOFTWAREROOTS\MICROSOFT VISUAL STUDIO 10.0\VC\INCLUDE\INTRIN.H
C:\_SOFTWAREROOTS\MICROSOFT VISUAL STUDIO 10.0\VC\INCLUDE\SETJMP.H
C:\_SOFTWAREROOTS\MICROSOFT VISUAL STUDIO 10.0\VC\INCLUDE\IMMINTRIN.H
C:\_SOFTWAREROOTS\MICROSOFT VISUAL STUDIO 10.0\VC\INCLUDE\WMMINTRIN.H
C:\_SOFTWAREROOTS\MICROSOFT VISUAL STUDIO 10.0\VC\INCLUDE\NMMINTRIN.H
C:\_SOFTWAREROOTS\MICROSOFT VISUAL STUDIO 10.0\VC\INCLUDE\SMMINTRIN.H
C:\_SOFTWAREROOTS\MICROSOFT VISUAL STUDIO 10.0\VC\INCLUDE\TMMINTRIN.H
C:\_SOFTWAREROOTS\MICROSOFT VISUAL STUDIO 10.0\VC\INCLUDE\PMMINTRIN.H
C:\_SOFTWAREROOTS\MICROSOFT VISUAL STUDIO 10.0\VC\INCLUDE\EMMINTRIN.H
C:\_SOFTWAREROOTS\MICROSOFT VISUAL STUDIO 10.0\VC\INCLUDE\XMMINTRIN.H
C:\_SOFTWAREROOTS\MICROSOFT VISUAL STUDIO 10.0\VC\INCLUDE\MMINTRIN.H
C:\_SOFTWAREROOTS\MICROSOFT VISUAL STUDIO 10.0\VC\INCLUDE\AMMINTRIN.H
C:\_SOFTWAREROOTS\MICROSOFT VISUAL STUDIO 10.0\VC\INCLUDE\MM3DNOW.H
C:\_SOFTWAREROOTS\MICROSOFT VISUAL STUDIO 10.0\VC\INCLUDE\XXSHARED
C:\_SOFTWAREROOTS\MICROSOFT VISUAL STUDIO 10.0\VC\INCLUDE\XFUNCTIONAL
C:\_SOFTWAREROOTS\MICROSOFT VISUAL STUDIO 10.0\VC\INCLUDE\IOSTREAM
C:\_SOFTWAREROOTS\MICROSOFT VISUAL STUDIO 10.0\VC\INCLUDE\FSTREAM
C:\_SOFTWAREROOTS\MICROSOFT VISUAL STUDIO 10.0\VC\INCLUDE\ALGORITHM
C:\_DOCUMENTS\_DOCUMENTS\_3DRENDERING\PROJECT\CHINESEPAINTINGMAIN\CHINESE_PAINTING\SHADER.HPP
C:\_DOCUMENTS\_DOCUMENTS\_3DRENDERING\PROJECT\CHINESEPAINTINGMAIN\CHINESE_PAINTING\GLEW\GLEW.H
C:\PROGRAM FILES (X86)\MICROSOFT SDKS\WINDOWS\V7.0A\INCLUDE\GL\GLU.H
C:\PROGRAM FILES (X86)\MICROSOFT SDKS\WINDOWS\V7.0A\INCLUDE\GL\GL.H
C:\_DOCUMENTS\_DOCUMENTS\_3DRENDERING\PROJECT\CHINESEPAINTINGMAIN\CHINESE_PAINTING\GLUT\GLUT.H
^C:\_DOCUMENTS\_DOCUMENTS\_3DRENDERING\PROJECT\CHINESEPAINTINGMAIN\CHINESE_PAINTING\MESH.CPP
C:\_DOCUMENTS\_DOCUMENTS\_3DRENDERING\PROJECT\CHINESEPAINTINGMAIN\CHINESE_PAINTING\MESH.H
C:\_SOFTWAREROOTS\MICROSOFT VISUAL STUDIO 10.0\VC\INCLUDE\STDIO.H
C:\_SOFTWAREROOTS\MICROSOFT VISUAL STUDIO 10.0\VC\INCLUDE\CRTDEFS.H
C:\_SOFTWAREROOTS\MICROSOFT VISUAL STUDIO 10.0\VC\INCLUDE\SAL.H
C:\_SOFTWAREROOTS\MICROSOFT VISUAL STUDIO 10.0\VC\INCLUDE\CODEANALYSIS\SOURCEANNOTATIONS.H
C:\_SOFTWAREROOTS\MICROSOFT VISUAL STUDIO 10.0\VC\INCLUDE\VADEFS.H
C:\_SOFTWAREROOTS\MICROSOFT VISUAL STUDIO 10.0\VC\INCLUDE\SWPRINTF.INL
^C:\_DOCUMENTS\_DOCUMENTS\_3DRENDERING\PROJECT\CHINESEPAINTINGMAIN\CHINESE_PAINTING\INPUT.CPP
C:\_DOCUMENTS\_DOCUMENTS\_3DRENDERING\PROJECT\CHINESEPAINTINGMAIN\CHINESE_PAINTING\CHINESE_PAINTING.H
C:\PROGRAM FILES (X86)\MICROSOFT SDKS\WINDOWS\V7.0A\INCLUDE\WINDOWS.H
C:\PROGRAM FILES (X86)\MICROSOFT SDKS\WINDOWS\V7.0A\INCLUDE\SDKDDKVER.H
C:\_SOFTWAREROOTS\MICROSOFT VISUAL STUDIO 10.0\VC\INCLUDE\EXCPT.H
C:\_SOFTWAREROOTS\MICROSOFT VISUAL STUDIO 10.0\VC\INCLUDE\CRTDEFS.H
C:\_SOFTWAREROOTS\MICROSOFT VISUAL STUDIO 10.0\VC\INCLUDE\SAL.H
C:\_SOFTWAREROOTS\MICROSOFT VISUAL STUDIO 10.0\VC\INCLUDE\CODEANALYSIS\SOURCEANNOTATIONS.H
C:\_SOFTWAREROOTS\MICROSOFT VISUAL STUDIO 10.0\VC\INCLUDE\VADEFS.H
C:\_SOFTWAREROOTS\MICROSOFT VISUAL STUDIO 10.0\VC\INCLUDE\STDARG.H
C:\PROGRAM FILES (X86)\MICROSOFT SDKS\WINDOWS\V7.0A\INCLUDE\WINDEF.H
C:\PROGRAM FILES (X86)\MICROSOFT SDKS\WINDOWS\V7.0A\INCLUDE\WINNT.H
C:\_SOFTWAREROOTS\MICROSOFT VISUAL STUDIO 10.0\VC\INCLUDE\CTYPE.H
C:\PROGRAM FILES (X86)\MICROSOFT SDKS\WINDOWS\V7.0A\INCLUDE\SPECSTRINGS.H
C:\PROGRAM FILES (X86)\MICROSOFT SDKS\WINDOWS\V7.0A\INCLUDE\SAL_SUPP.H
C:\PROGRAM FILES (X86)\MICROSOFT SDKS\WINDOWS\V7.0A\INCLUDE\SPECSTRINGS_SUPP.H
C:\PROGRAM FILES (X86)\MICROSOFT SDKS\WINDOWS\V7.0A\INCLUDE\SPECSTRINGS_STRICT.H
C:\PROGRAM FILES (X86)\MICROSOFT SDKS\WINDOWS\V7.0A\INCLUDE\SPECSTRINGS_UNDEF.H
C:\PROGRAM FILES (X86)\MICROSOFT SDKS\WINDOWS\V7.0A\INCLUDE\DRIVERSPECS.H
C:\PROGRAM FILES (X86)\MICROSOFT SDKS\WINDOWS\V7.0A\INCLUDE\SDV_DRIVERSPECS.H
C:\PROGRAM FILES (X86)\MICROSOFT SDKS\WINDOWS\V7.0A\INCLUDE\KERNELSPECS.H
C:\PROGRAM FILES (X86)\MICROSOFT SDKS\WINDOWS\V7.0A\INCLUDE\BASETSD.H
C:\PROGRAM FILES (X86)\MICROSOFT SDKS\WINDOWS\V7.0A\INCLUDE\GUIDDEF.H
C:\_SOFTWAREROOTS\MICROSOFT VISUAL STUDIO 10.0\VC\INCLUDE\STRING.H
C:\PROGRAM FILES (X86)\MICROSOFT SDKS\WINDOWS\V7.0A\INCLUDE\PSHPACK4.H
C:\PROGRAM FILES (X86)\MICROSOFT SDKS\WINDOWS\V7.0A\INCLUDE\POPPACK.H
C:\PROGRAM FILES (X86)\MICROSOFT SDKS\WINDOWS\V7.0A\INCLUDE\PSHPACK2.H
C:\PROGRAM FILES (X86)\MICROSOFT SDKS\WINDOWS\V7.0A\INCLUDE\PSHPACK8.H
C:\PROGRAM FILES (X86)\MICROSOFT SDKS\WINDOWS\V7.0A\INCLUDE\KTMTYPES.H
C:\PROGRAM FILES (X86)\MICROSOFT SDKS\WINDOWS\V7.0A\INCLUDE\WINBASE.H
C:\PROGRAM FILES (X86)\MICROSOFT SDKS\WINDOWS\V7.0A\INCLUDE\WINERROR.H
C:\PROGRAM FILES (X86)\MICROSOFT SDKS\WINDOWS\V7.0A\INCLUDE\WINGDI.H
C:\PROGRAM FILES (X86)\MICROSOFT SDKS\WINDOWS\V7.0A\INCLUDE\PSHPACK1.H
C:\PROGRAM FILES (X86)\MICROSOFT SDKS\WINDOWS\V7.0A\INCLUDE\WINUSER.H
C:\PROGRAM FILES (X86)\MICROSOFT SDKS\WINDOWS\V7.0A\INCLUDE\TVOUT.H
C:\PROGRAM FILES (X86)\MICROSOFT SDKS\WINDOWS\V7.0A\INCLUDE\WINNLS.H
C:\PROGRAM FILES (X86)\MICROSOFT SDKS\WINDOWS\V7.0A\INCLUDE\WINCON.H
C:\PROGRAM FILES (X86)\MICROSOFT SDKS\WINDOWS\V7.0A\INCLUDE\WINVER.H
C:\PROGRAM FILES (X86)\MICROSOFT SDKS\WINDOWS\V7.0A\INCLUDE\VERRSRC.H
C:\PROGRAM FILES (X86)\MICROSOFT SDKS\WINDOWS\V7.0A\INCLUDE\WINREG.H
C:\PROGRAM FILES (X86)\MICROSOFT SDKS\WINDOWS\V7.0A\INCLUDE\REASON.H
C:\PROGRAM FILES (X86)\MICROSOFT SDKS\WINDOWS\V7.0A\INCLUDE\WINNETWK.H
C:\PROGRAM FILES (X86)\MICROSOFT SDKS\WINDOWS\V7.0A\INCLUDE\WNNC.H
C:\PROGRAM FILES (X86)\MICROSOFT SDKS\WINDOWS\V7.0A\INCLUDE\CDERR.H
C:\PROGRAM FILES (X86)\MICROSOFT SDKS\WINDOWS\V7.0A\INCLUDE\DDE.H
C:\PROGRAM FILES (X86)\MICROSOFT SDKS\WINDOWS\V7.0A\INCLUDE\DDEML.H
C:\PROGRAM FILES (X86)\MICROSOFT SDKS\WINDOWS\V7.0A\INCLUDE\DLGS.H
C:\PROGRAM FILES (X86)\MICROSOFT SDKS\WINDOWS\V7.0A\INCLUDE\LZEXPAND.H
C:\PROGRAM FILES (X86)\MICROSOFT SDKS\WINDOWS\V7.0A\INCLUDE\MMSYSTEM.H
C:\PROGRAM FILES (X86)\MICROSOFT SDKS\WINDOWS\V7.0A\INCLUDE\NB30.H
C:\PROGRAM FILES (X86)\MICROSOFT SDKS\WINDOWS\V7.0A\INCLUDE\RPC.H
C:\PROGRAM FILES (X86)\MICROSOFT SDKS\WINDOWS\V7.0A\INCLUDE\RPCDCE.H
C:\PROGRAM FILES (X86)\MICROSOFT SDKS\WINDOWS\V7.0A\INCLUDE\RPCDCEP.H
C:\PROGRAM FILES (X86)\MICROSOFT SDKS\WINDOWS\V7.0A\INCLUDE\RPCNSI.H
C:\PROGRAM FILES (X86)\MICROSOFT SDKS\WINDOWS\V7.0A\INCLUDE\RPCNTERR.H
C:\PROGRAM FILES (X86)\MICROSOFT SDKS\WINDOWS\V7.0A\INCLUDE\RPCASYNC.H
C:\PROGRAM FILES (X86)\MICROSOFT SDKS\WINDOWS\V7.0A\INCLUDE\SHELLAPI.H
C:\PROGRAM FILES (X86)\MICROSOFT SDKS\WINDOWS\V7.0A\INCLUDE\WINPERF.H
C:\PROGRAM FILES (X86)\MICROSOFT SDKS\WINDOWS\V7.0A\INCLUDE\WINSOCK.H
C:\PROGRAM FILES (X86)\MICROSOFT SDKS\WINDOWS\V7.0A\INCLUDE\INADDR.H
C:\PROGRAM FILES (X86)\MICROSOFT SDKS\WINDOWS\V7.0A\INCLUDE\WINCRYPT.H
C:\PROGRAM FILES (X86)\MICROSOFT SDKS\WINDOWS\V7.0A\INCLUDE\BCRYPT.H
C:\PROGRAM FILES (X86)\MICROSOFT SDKS\WINDOWS\V7.0A\INCLUDE\NCRYPT.H
C:\PROGRAM FILES (X86)\MICROSOFT SDKS\WINDOWS\V7.0A\INCLUDE\WINEFS.H
C:\PROGRAM FILES (X86)\MICROSOFT SDKS\WINDOWS\V7.0A\INCLUDE\WINSCARD.H
C:\PROGRAM FILES (X86)\MICROSOFT SDKS\WINDOWS\V7.0A\INCLUDE\WTYPES.H
C:\PROGRAM FILES (X86)\MICROSOFT SDKS\WINDOWS\V7.0A\INCLUDE\RPCNDR.H
C:\PROGRAM FILES (X86)\MICROSOFT SDKS\WINDOWS\V7.0A\INCLUDE\RPCNSIP.H
C:\PROGRAM FILES (X86)\MICROSOFT SDKS\WINDOWS\V7.0A\INCLUDE\RPCSAL.H
C:\PROGRAM FILES (X86)\MICROSOFT SDKS\WINDOWS\V7.0A\INCLUDE\WINIOCTL.H
C:\PROGRAM FILES (X86)\MICROSOFT SDKS\WINDOWS\V7.0A\INCLUDE\WINSMCRD.H
C:\PROGRAM FILES (X86)\MICROSOFT SDKS\WINDOWS\V7.0A\INCLUDE\WINSPOOL.H
C:\PROGRAM FILES (X86)\MICROSOFT SDKS\WINDOWS\V7.0A\INCLUDE\PRSHT.H
C:\PROGRAM FILES (X86)\MICROSOFT SDKS\WINDOWS\V7.0A\INCLUDE\OLE2.H
C:\PROGRAM FILES (X86)\MICROSOFT SDKS\WINDOWS\V7.0A\INCLUDE\OBJBASE.H
C:\_SOFTWAREROOTS\MICROSOFT VISUAL STUDIO 10.0\VC\INCLUDE\STDLIB.H
C:\_SOFTWAREROOTS\MICROSOFT VISUAL STUDIO 10.0\VC\INCLUDE\LIMITS.H
C:\PROGRAM FILES (X86)\MICROSOFT SDKS\WINDOWS\V7.0A\INCLUDE\UNKNWN.H
C:\PROGRAM FILES (X86)\MICROSOFT SDKS\WINDOWS\V7.0A\INCLUDE\OBJIDL.H
C:\PROGRAM FILES (X86)\MICROSOFT SDKS\WINDOWS\V7.0A\INCLUDE\CGUID.H
C:\PROGRAM FILES (X86)\MICROSOFT SDKS\WINDOWS\V7.0A\INCLUDE\URLMON.H
C:\PROGRAM FILES (X86)\MICROSOFT SDKS\WINDOWS\V7.0A\INCLUDE\OLEIDL.H
C:\PROGRAM FILES (X86)\MICROSOFT SDKS\WINDOWS\V7.0A\INCLUDE\SERVPROV.H
C:\PROGRAM FILES (X86)\MICROSOFT SDKS\WINDOWS\V7.0A\INCLUDE\MSXML.H
C:\PROGRAM FILES (X86)\MICROSOFT SDKS\WINDOWS\V7.0A\INCLUDE\OAIDL.H
C:\PROGRAM FILES (X86)\MICROSOFT SDKS\WINDOWS\V7.0A\INCLUDE\PROPIDL.H
C:\PROGRAM FILES (X86)\MICROSOFT SDKS\WINDOWS\V7.0A\INCLUDE\OLEAUTO.H
C:\PROGRAM FILES (X86)\MICROSOFT SDKS\WINDOWS\V7.0A\INCLUDE\COMMDLG.H
C:\PROGRAM FILES (X86)\MICROSOFT SDKS\WINDOWS\V7.0A\INCLUDE\STRALIGN.H
C:\PROGRAM FILES (X86)\MICROSOFT SDKS\WINDOWS\V7.0A\INCLUDE\WINSVC.H
C:\PROGRAM FILES (X86)\MICROSOFT SDKS\WINDOWS\V7.0A\INCLUDE\MCX.H
C:\PROGRAM FILES (X86)\MICROSOFT SDKS\WINDOWS\V7.0A\INCLUDE\IMM.H
C:\PROGRAM FILES (X86)\MICROSOFT SDKS\WINDOWS\V7.0A\INCLUDE\IME_CMODES.H
C:\_SOFTWAREROOTS\MICROSOFT VISUAL STUDIO 10.0\VC\INCLUDE\STDIO.H
C:\_SOFTWAREROOTS\MICROSOFT VISUAL STUDIO 10.0\VC\INCLUDE\SWPRINTF.INL
C:\_SOFTWAREROOTS\MICROSOFT VISUAL STUDIO 10.0\VC\INCLUDE\MATH.H
C:\_DOCUMENTS\_DOCUMENTS\_3DRENDERING\PROJECT\CHINESEPAINTINGMAIN\CHINESE_PAINTING\SHADER.HPP
C:\_DOCUMENTS\_DOCUMENTS\_3DRENDERING\PROJECT\CHINESEPAINTINGMAIN\CHINESE_PAINTING\GLEW\GLEW.H
C:\PROGRAM FILES (X86)\MICROSOFT SDKS\WINDOWS\V7.0A\INCLUDE\GL\GLU.H
C:\PROGRAM FILES (X86)\MICROSOFT SDKS\WINDOWS\V7.0A\INCLUDE\GL\GL.H
C:\_DOCUMENTS\_DOCUMENTS\_3DRENDERING\PROJECT\CHINESEPAINTINGMAIN\CHINESE_PAINTING\GLUT\GLUT.H
C:\_DOCUMENTS\_DOCUMENTS\_3DRENDERING\PROJECT\CHINESEPAINTINGMAIN\CHINESE_PAINTING\GLM\GLM.HPP
C:\_DOCUMENTS\_DOCUMENTS\_3DRENDERING\PROJECT\CHINESEPAINTINGMAIN\CHINESE_PAINTING\GLM\CORE\_FIXES.HPP
C:\_SOFTWAREROOTS\MICROSOFT VISUAL STUDIO 10.0\VC\INCLUDE\CMATH
C:\_SOFTWAREROOTS\MICROSOFT VISUAL STUDIO 10.0\VC\INCLUDE\YVALS.H
C:\_SOFTWAREROOTS\MICROSOFT VISUAL STUDIO 10.0\VC\INCLUDE\USE_ANSI.H
C:\_SOFTWAREROOTS\MICROSOFT VISUAL STUDIO 10.0\VC\INCLUDE\CLIMITS
C:\_SOFTWAREROOTS\MICROSOFT VISUAL STUDIO 10.0\VC\INCLUDE\CFLOAT
C:\_SOFTWAREROOTS\MICROSOFT VISUAL STUDIO 10.0\VC\INCLUDE\FLOAT.H
C:\_SOFTWAREROOTS\MICROSOFT VISUAL STUDIO 10.0\VC\INCLUDE\CRTWRN.H
C:\_SOFTWAREROOTS\MICROSOFT VISUAL STUDIO 10.0\VC\INCLUDE\LIMITS
C:\_SOFTWAREROOTS\MICROSOFT VISUAL STUDIO 10.0\VC\INCLUDE\YMATH.H
C:\_SOFTWAREROOTS\MICROSOFT VISUAL STUDIO 10.0\VC\INCLUDE\CWCHAR
C:\_SOFTWAREROOTS\MICROSOFT VISUAL STUDIO 10.0\VC\INCLUDE\WCHAR.H
C:\_SOFTWAREROOTS\MICROSOFT VISUAL STUDIO 10.0\VC\INCLUDE\WTIME.INL
C:\_SOFTWAREROOTS\MICROSOFT VISUAL STUDIO 10.0\VC\INCLUDE\XSTDDEF
C:\_SOFTWAREROOTS\MICROSOFT VISUAL STUDIO 10.0\VC\INCLUDE\CSTDDEF
C:\_SOFTWAREROOTS\MICROSOFT VISUAL STUDIO 10.0\VC\INCLUDE\STDDEF.H
C:\_SOFTWAREROOTS\MICROSOFT VISUAL STUDIO 10.0\VC\INCLUDE\CSTDIO
C:\_DOCUMENTS\_DOCUMENTS\_3DRENDERING\PROJECT\CHINESEPAINTINGMAIN\CHINESE_PAINTING\GLM\CORE\SETUP.HPP
C:\_SOFTWAREROOTS\MICROSOFT VISUAL STUDIO 10.0\VC\INCLUDE\IMMINTRIN.H
C:\_SOFTWAREROOTS\MICROSOFT VISUAL STUDIO 10.0\VC\INCLUDE\WMMINTRIN.H
C:\_SOFTWAREROOTS\MICROSOFT VISUAL STUDIO 10.0\VC\INCLUDE\NMMINTRIN.H
C:\_SOFTWAREROOTS\MICROSOFT VISUAL STUDIO 10.0\VC\INCLUDE\SMMINTRIN.H
C:\_SOFTWAREROOTS\MICROSOFT VISUAL STUDIO 10.0\VC\INCLUDE\TMMINTRIN.H
C:\_SOFTWAREROOTS\MICROSOFT VISUAL STUDIO 10.0\VC\INCLUDE\PMMINTRIN.H
C:\_SOFTWAREROOTS\MICROSOFT VISUAL STUDIO 10.0\VC\INCLUDE\EMMINTRIN.H
C:\_SOFTWAREROOTS\MICROSOFT VISUAL STUDIO 10.0\VC\INCLUDE\XMMINTRIN.H
C:\_SOFTWAREROOTS\MICROSOFT VISUAL STUDIO 10.0\VC\INCLUDE\MMINTRIN.H
C:\_SOFTWAREROOTS\MICROSOFT VISUAL STUDIO 10.0\VC\INCLUDE\MALLOC.H
C:\_DOCUMENTS\_DOCUMENTS\_3DRENDERING\PROJECT\CHINESEPAINTINGMAIN\CHINESE_PAINTING\GLM\CORE\_DETAIL.HPP
C:\_SOFTWAREROOTS\MICROSOFT VISUAL STUDIO 10.0\VC\INCLUDE\CASSERT
C:\_SOFTWAREROOTS\MICROSOFT VISUAL STUDIO 10.0\VC\INCLUDE\ASSERT.H
C:\_DOCUMENTS\_DOCUMENTS\_3DRENDERING\PROJECT\CHINESEPAINTINGMAIN\CHINESE_PAINTING\GLM\CORE\_VECTORIZE.HPP
C:\_DOCUMENTS\_DOCUMENTS\_3DRENDERING\PROJECT\CHINESEPAINTINGMAIN\CHINESE_PAINTING\GLM\CORE\TYPE.HPP
C:\_DOCUMENTS\_DOCUMENTS\_3DRENDERING\PROJECT\CHINESEPAINTINGMAIN\CHINESE_PAINTING\GLM\CORE\TYPE_HALF.HPP
C:\_SOFTWAREROOTS\MICROSOFT VISUAL STUDIO 10.0\VC\INCLUDE\CSTDLIB
C:\_DOCUMENTS\_DOCUMENTS\_3DRENDERING\PROJECT\CHINESEPAINTINGMAIN\CHINESE_PAINTING\GLM\CORE\TYPE_HALF.INL
C:\_DOCUMENTS\_DOCUMENTS\_3DRENDERING\PROJECT\CHINESEPAINTINGMAIN\CHINESE_PAINTING\GLM\CORE\TYPE_FLOAT.HPP
C:\_DOCUMENTS\_DOCUMENTS\_3DRENDERING\PROJECT\CHINESEPAINTINGMAIN\CHINESE_PAINTING\GLM\CORE\TYPE_INT.HPP
C:\_DOCUMENTS\_DOCUMENTS\_3DRENDERING\PROJECT\CHINESEPAINTINGMAIN\CHINESE_PAINTING\GLM\CORE\TYPE_GENTYPE.HPP
C:\_DOCUMENTS\_DOCUMENTS\_3DRENDERING\PROJECT\CHINESEPAINTINGMAIN\CHINESE_PAINTING\GLM\CORE\TYPE_SIZE.HPP
C:\_DOCUMENTS\_DOCUMENTS\_3DRENDERING\PROJECT\CHINESEPAINTINGMAIN\CHINESE_PAINTING\GLM\CORE\TYPE_VEC1.HPP
C:\_DOCUMENTS\_DOCUMENTS\_3DRENDERING\PROJECT\CHINESEPAINTINGMAIN\CHINESE_PAINTING\GLM\CORE\TYPE_VEC.HPP
C:\_DOCUMENTS\_DOCUMENTS\_3DRENDERING\PROJECT\CHINESEPAINTINGMAIN\CHINESE_PAINTING\GLM\CORE\_SWIZZLE.HPP
C:\_DOCUMENTS\_DOCUMENTS\_3DRENDERING\PROJECT\CHINESEPAINTINGMAIN\CHINESE_PAINTING\GLM\CORE\_SWIZZLE_FUNC.HPP
C:\_DOCUMENTS\_DOCUMENTS\_3DRENDERING\PROJECT\CHINESEPAINTINGMAIN\CHINESE_PAINTING\GLM\CORE\TYPE_VEC1.INL
C:\_DOCUMENTS\_DOCUMENTS\_3DRENDERING\PROJECT\CHINESEPAINTINGMAIN\CHINESE_PAINTING\GLM\CORE\TYPE_VEC2.HPP
C:\_DOCUMENTS\_DOCUMENTS\_3DRENDERING\PROJECT\CHINESEPAINTINGMAIN\CHINESE_PAINTING\GLM\CORE\TYPE_VEC2.INL
C:\_DOCUMENTS\_DOCUMENTS\_3DRENDERING\PROJECT\CHINESEPAINTINGMAIN\CHINESE_PAINTING\GLM\CORE\TYPE_VEC3.HPP
C:\_DOCUMENTS\_DOCUMENTS\_3DRENDERING\PROJECT\CHINESEPAINTINGMAIN\CHINESE_PAINTING\GLM\CORE\TYPE_VEC3.INL
C:\_DOCUMENTS\_DOCUMENTS\_3DRENDERING\PROJECT\CHINESEPAINTINGMAIN\CHINESE_PAINTING\GLM\CORE\TYPE_VEC4.HPP
C:\_DOCUMENTS\_DOCUMENTS\_3DRENDERING\PROJECT\CHINESEPAINTINGMAIN\CHINESE_PAINTING\GLM\CORE\TYPE_VEC4.INL
C:\_DOCUMENTS\_DOCUMENTS\_3DRENDERING\PROJECT\CHINESEPAINTINGMAIN\CHINESE_PAINTING\GLM\CORE\TYPE_MAT2X2.HPP
C:\_DOCUMENTS\_DOCUMENTS\_3DRENDERING\PROJECT\CHINESEPAINTINGMAIN\CHINESE_PAINTING\GLM\CORE\TYPE_MAT.HPP
C:\_DOCUMENTS\_DOCUMENTS\_3DRENDERING\PROJECT\CHINESEPAINTINGMAIN\CHINESE_PAINTING\GLM\CORE\TYPE_MAT2X2.INL
C:\_DOCUMENTS\_DOCUMENTS\_3DRENDERING\PROJECT\CHINESEPAINTINGMAIN\CHINESE_PAINTING\GLM\CORE\TYPE_MAT2X3.HPP
C:\_DOCUMENTS\_DOCUMENTS\_3DRENDERING\PROJECT\CHINESEPAINTINGMAIN\CHINESE_PAINTING\GLM\CORE\TYPE_MAT2X3.INL
C:\_DOCUMENTS\_DOCUMENTS\_3DRENDERING\PROJECT\CHINESEPAINTINGMAIN\CHINESE_PAINTING\GLM\CORE\TYPE_MAT2X4.HPP
C:\_DOCUMENTS\_DOCUMENTS\_3DRENDERING\PROJECT\CHINESEPAINTINGMAIN\CHINESE_PAINTING\GLM\CORE\TYPE_MAT2X4.INL
C:\_DOCUMENTS\_DOCUMENTS\_3DRENDERING\PROJECT\CHINESEPAINTINGMAIN\CHINESE_PAINTING\GLM\CORE\TYPE_MAT3X2.HPP
C:\_DOCUMENTS\_DOCUMENTS\_3DRENDERING\PROJECT\CHINESEPAINTINGMAIN\CHINESE_PAINTING\GLM\CORE\TYPE_MAT3X2.INL
C:\_DOCUMENTS\_DOCUMENTS\_3DRENDERING\PROJECT\CHINESEPAINTINGMAIN\CHINESE_PAINTING\GLM\CORE\TYPE_MAT3X3.HPP
C:\_DOCUMENTS\_DOCUMENTS\_3DRENDERING\PROJECT\CHINESEPAINTINGMAIN\CHINESE_PAINTING\GLM\CORE\TYPE_MAT3X3.INL
C:\_DOCUMENTS\_DOCUMENTS\_3DRENDERING\PROJECT\CHINESEPAINTINGMAIN\CHINESE_PAINTING\GLM\CORE\TYPE_MAT3X4.HPP
C:\_DOCUMENTS\_DOCUMENTS\_3DRENDERING\PROJECT\CHINESEPAINTINGMAIN\CHINESE_PAINTING\GLM\CORE\TYPE_MAT3X4.INL
C:\_DOCUMENTS\_DOCUMENTS\_3DRENDERING\PROJECT\CHINESEPAINTINGMAIN\CHINESE_PAINTING\GLM\CORE\TYPE_MAT4X2.HPP
C:\_DOCUMENTS\_DOCUMENTS\_3DRENDERING\PROJECT\CHINESEPAINTINGMAIN\CHINESE_PAINTING\GLM\CORE\TYPE_MAT4X2.INL
C:\_DOCUMENTS\_DOCUMENTS\_3DRENDERING\PROJECT\CHINESEPAINTINGMAIN\CHINESE_PAINTING\GLM\CORE\TYPE_MAT4X3.HPP
C:\_DOCUMENTS\_DOCUMENTS\_3DRENDERING\PROJECT\CHINESEPAINTINGMAIN\CHINESE_PAINTING\GLM\CORE\TYPE_MAT4X3.INL
C:\_DOCUMENTS\_DOCUMENTS\_3DRENDERING\PROJECT\CHINESEPAINTINGMAIN\CHINESE_PAINTING\GLM\CORE\TYPE_MAT4X4.HPP
C:\_DOCUMENTS\_DOCUMENTS\_3DRENDERING\PROJECT\CHINESEPAINTINGMAIN\CHINESE_PAINTING\GLM\CORE\TYPE_MAT4X4.INL
C:\_DOCUMENTS\_DOCUMENTS\_3DRENDERING\PROJECT\CHINESEPAINTINGMAIN\CHINESE_PAINTING\GLM\CORE\FUNC_TRIGONOMETRIC.HPP
C:\_DOCUMENTS\_DOCUMENTS\_3DRENDERING\PROJECT\CHINESEPAINTINGMAIN\CHINESE_PAINTING\GLM\CORE\FUNC_TRIGONOMETRIC.INL
C:\_DOCUMENTS\_DOCUMENTS\_3DRENDERING\PROJECT\CHINESEPAINTINGMAIN\CHINESE_PAINTING\GLM\CORE\FUNC_EXPONENTIAL.HPP
C:\_DOCUMENTS\_DOCUMENTS\_3DRENDERING\PROJECT\CHINESEPAINTINGMAIN\CHINESE_PAINTING\GLM\CORE\FUNC_EXPONENTIAL.INL
C:\_DOCUMENTS\_DOCUMENTS\_3DRENDERING\PROJECT\CHINESEPAINTINGMAIN\CHINESE_PAINTING\GLM\CORE\FUNC_COMMON.HPP
C:\_DOCUMENTS\_DOCUMENTS\_3DRENDERING\PROJECT\CHINESEPAINTINGMAIN\CHINESE_PAINTING\GLM\CORE\FUNC_COMMON.INL
C:\_DOCUMENTS\_DOCUMENTS\_3DRENDERING\PROJECT\CHINESEPAINTINGMAIN\CHINESE_PAINTING\GLM\CORE\FUNC_PACKING.HPP
C:\_DOCUMENTS\_DOCUMENTS\_3DRENDERING\PROJECT\CHINESEPAINTINGMAIN\CHINESE_PAINTING\GLM\CORE\FUNC_PACKING.INL
C:\_DOCUMENTS\_DOCUMENTS\_3DRENDERING\PROJECT\CHINESEPAINTINGMAIN\CHINESE_PAINTING\GLM\CORE\FUNC_GEOMETRIC.HPP
C:\_DOCUMENTS\_DOCUMENTS\_3DRENDERING\PROJECT\CHINESEPAINTINGMAIN\CHINESE_PAINTING\GLM\CORE\FUNC_GEOMETRIC.INL
C:\_DOCUMENTS\_DOCUMENTS\_3DRENDERING\PROJECT\CHINESEPAINTINGMAIN\CHINESE_PAINTING\GLM\CORE\FUNC_MATRIX.HPP
C:\_DOCUMENTS\_DOCUMENTS\_3DRENDERING\PROJECT\CHINESEPAINTINGMAIN\CHINESE_PAINTING\GLM\CORE\FUNC_MATRIX.INL
C:\_DOCUMENTS\_DOCUMENTS\_3DRENDERING\PROJECT\CHINESEPAINTINGMAIN\CHINESE_PAINTING\GLM\CORE\FUNC_VECTOR_RELATIONAL.HPP
C:\_DOCUMENTS\_DOCUMENTS\_3DRENDERING\PROJECT\CHINESEPAINTINGMAIN\CHINESE_PAINTING\GLM\CORE\FUNC_VECTOR_RELATIONAL.INL
C:\_DOCUMENTS\_DOCUMENTS\_3DRENDERING\PROJECT\CHINESEPAINTINGMAIN\CHINESE_PAINTING\GLM\CORE\FUNC_INTEGER.HPP
C:\_DOCUMENTS\_DOCUMENTS\_3DRENDERING\PROJECT\CHINESEPAINTINGMAIN\CHINESE_PAINTING\GLM\CORE\FUNC_INTEGER.INL
C:\_SOFTWAREROOTS\MICROSOFT VISUAL STUDIO 10.0\VC\INCLUDE\INTRIN.H
C:\_SOFTWAREROOTS\MICROSOFT VISUAL STUDIO 10.0\VC\INCLUDE\SETJMP.H
C:\_SOFTWAREROOTS\MICROSOFT VISUAL STUDIO 10.0\VC\INCLUDE\AMMINTRIN.H
C:\_SOFTWAREROOTS\MICROSOFT VISUAL STUDIO 10.0\VC\INCLUDE\MM3DNOW.H
C:\_DOCUMENTS\_DOCUMENTS\_3DRENDERING\PROJECT\CHINESEPAINTINGMAIN\CHINESE_PAINTING\GLM\CORE\FUNC_NOISE.HPP
C:\_DOCUMENTS\_DOCUMENTS\_3DRENDERING\PROJECT\CHINESEPAINTINGMAIN\CHINESE_PAINTING\GLM\CORE\FUNC_NOISE.INL
C:\_DOCUMENTS\_DOCUMENTS\_3DRENDERING\PROJECT\CHINESEPAINTINGMAIN\CHINESE_PAINTING\GLM\GTC\MATRIX_TRANSFORM.HPP
C:\_DOCUMENTS\_DOCUMENTS\_3DRENDERING\PROJECT\CHINESEPAINTINGMAIN\CHINESE_PAINTING\GLM\GTC\MATRIX_TRANSFORM.INL
C:\_DOCUMENTS\_DOCUMENTS\_3DRENDERING\PROJECT\CHINESEPAINTINGMAIN\CHINESE_PAINTING\INPUT.H
^C:\_DOCUMENTS\_DOCUMENTS\_3DRENDERING\PROJECT\CHINESEPAINTINGMAIN\CHINESE_PAINTING\CHINESE_PAINTING.CPP
C:\_DOCUMENTS\_DOCUMENTS\_3DRENDERING\PROJECT\CHINESEPAINTINGMAIN\CHINESE_PAINTING\CHINESE_PAINTING.H
C:\PROGRAM FILES (X86)\MICROSOFT SDKS\WINDOWS\V7.0A\INCLUDE\WINDOWS.H
C:\PROGRAM FILES (X86)\MICROSOFT SDKS\WINDOWS\V7.0A\INCLUDE\SDKDDKVER.H
C:\_SOFTWAREROOTS\MICROSOFT VISUAL STUDIO 10.0\VC\INCLUDE\EXCPT.H
C:\_SOFTWAREROOTS\MICROSOFT VISUAL STUDIO 10.0\VC\INCLUDE\CRTDEFS.H
C:\_SOFTWAREROOTS\MICROSOFT VISUAL STUDIO 10.0\VC\INCLUDE\SAL.H
C:\_SOFTWAREROOTS\MICROSOFT VISUAL STUDIO 10.0\VC\INCLUDE\CODEANALYSIS\SOURCEANNOTATIONS.H
C:\_SOFTWAREROOTS\MICROSOFT VISUAL STUDIO 10.0\VC\INCLUDE\VADEFS.H
C:\_SOFTWAREROOTS\MICROSOFT VISUAL STUDIO 10.0\VC\INCLUDE\STDARG.H
C:\PROGRAM FILES (X86)\MICROSOFT SDKS\WINDOWS\V7.0A\INCLUDE\WINDEF.H
C:\PROGRAM FILES (X86)\MICROSOFT SDKS\WINDOWS\V7.0A\INCLUDE\WINNT.H
C:\_SOFTWAREROOTS\MICROSOFT VISUAL STUDIO 10.0\VC\INCLUDE\CTYPE.H
C:\PROGRAM FILES (X86)\MICROSOFT SDKS\WINDOWS\V7.0A\INCLUDE\SPECSTRINGS.H
C:\PROGRAM FILES (X86)\MICROSOFT SDKS\WINDOWS\V7.0A\INCLUDE\SAL_SUPP.H
C:\PROGRAM FILES (X86)\MICROSOFT SDKS\WINDOWS\V7.0A\INCLUDE\SPECSTRINGS_SUPP.H
C:\PROGRAM FILES (X86)\MICROSOFT SDKS\WINDOWS\V7.0A\INCLUDE\SPECSTRINGS_STRICT.H
C:\PROGRAM FILES (X86)\MICROSOFT SDKS\WINDOWS\V7.0A\INCLUDE\SPECSTRINGS_UNDEF.H
C:\PROGRAM FILES (X86)\MICROSOFT SDKS\WINDOWS\V7.0A\INCLUDE\DRIVERSPECS.H
C:\PROGRAM FILES (X86)\MICROSOFT SDKS\WINDOWS\V7.0A\INCLUDE\SDV_DRIVERSPECS.H
C:\PROGRAM FILES (X86)\MICROSOFT SDKS\WINDOWS\V7.0A\INCLUDE\KERNELSPECS.H
C:\PROGRAM FILES (X86)\MICROSOFT SDKS\WINDOWS\V7.0A\INCLUDE\BASETSD.H
C:\PROGRAM FILES (X86)\MICROSOFT SDKS\WINDOWS\V7.0A\INCLUDE\GUIDDEF.H
C:\_SOFTWAREROOTS\MICROSOFT VISUAL STUDIO 10.0\VC\INCLUDE\STRING.H
C:\PROGRAM FILES (X86)\MICROSOFT SDKS\WINDOWS\V7.0A\INCLUDE\PSHPACK4.H
C:\PROGRAM FILES (X86)\MICROSOFT SDKS\WINDOWS\V7.0A\INCLUDE\POPPACK.H
C:\PROGRAM FILES (X86)\MICROSOFT SDKS\WINDOWS\V7.0A\INCLUDE\PSHPACK2.H
C:\PROGRAM FILES (X86)\MICROSOFT SDKS\WINDOWS\V7.0A\INCLUDE\PSHPACK8.H
C:\PROGRAM FILES (X86)\MICROSOFT SDKS\WINDOWS\V7.0A\INCLUDE\KTMTYPES.H
C:\PROGRAM FILES (X86)\MICROSOFT SDKS\WINDOWS\V7.0A\INCLUDE\WINBASE.H
C:\PROGRAM FILES (X86)\MICROSOFT SDKS\WINDOWS\V7.0A\INCLUDE\WINERROR.H
C:\PROGRAM FILES (X86)\MICROSOFT SDKS\WINDOWS\V7.0A\INCLUDE\WINGDI.H
C:\PROGRAM FILES (X86)\MICROSOFT SDKS\WINDOWS\V7.0A\INCLUDE\PSHPACK1.H
C:\PROGRAM FILES (X86)\MICROSOFT SDKS\WINDOWS\V7.0A\INCLUDE\WINUSER.H
C:\PROGRAM FILES (X86)\MICROSOFT SDKS\WINDOWS\V7.0A\INCLUDE\TVOUT.H
C:\PROGRAM FILES (X86)\MICROSOFT SDKS\WINDOWS\V7.0A\INCLUDE\WINNLS.H
C:\PROGRAM FILES (X86)\MICROSOFT SDKS\WINDOWS\V7.0A\INCLUDE\WINCON.H
C:\PROGRAM FILES (X86)\MICROSOFT SDKS\WINDOWS\V7.0A\INCLUDE\WINVER.H
C:\PROGRAM FILES (X86)\MICROSOFT SDKS\WINDOWS\V7.0A\INCLUDE\VERRSRC.H
C:\PROGRAM FILES (X86)\MICROSOFT SDKS\WINDOWS\V7.0A\INCLUDE\WINREG.H
C:\PROGRAM FILES (X86)\MICROSOFT SDKS\WINDOWS\V7.0A\INCLUDE\REASON.H
C:\PROGRAM FILES (X86)\MICROSOFT SDKS\WINDOWS\V7.0A\INCLUDE\WINNETWK.H
C:\PROGRAM FILES (X86)\MICROSOFT SDKS\WINDOWS\V7.0A\INCLUDE\WNNC.H
C:\PROGRAM FILES (X86)\MICROSOFT SDKS\WINDOWS\V7.0A\INCLUDE\CDERR.H
C:\PROGRAM FILES (X86)\MICROSOFT SDKS\WINDOWS\V7.0A\INCLUDE\DDE.H
C:\PROGRAM FILES (X86)\MICROSOFT SDKS\WINDOWS\V7.0A\INCLUDE\DDEML.H
C:\PROGRAM FILES (X86)\MICROSOFT SDKS\WINDOWS\V7.0A\INCLUDE\DLGS.H
C:\PROGRAM FILES (X86)\MICROSOFT SDKS\WINDOWS\V7.0A\INCLUDE\LZEXPAND.H
C:\PROGRAM FILES (X86)\MICROSOFT SDKS\WINDOWS\V7.0A\INCLUDE\MMSYSTEM.H
C:\PROGRAM FILES (X86)\MICROSOFT SDKS\WINDOWS\V7.0A\INCLUDE\NB30.H
C:\PROGRAM FILES (X86)\MICROSOFT SDKS\WINDOWS\V7.0A\INCLUDE\RPC.H
C:\PROGRAM FILES (X86)\MICROSOFT SDKS\WINDOWS\V7.0A\INCLUDE\RPCDCE.H
C:\PROGRAM FILES (X86)\MICROSOFT SDKS\WINDOWS\V7.0A\INCLUDE\RPCDCEP.H
C:\PROGRAM FILES (X86)\MICROSOFT SDKS\WINDOWS\V7.0A\INCLUDE\RPCNSI.H
C:\PROGRAM FILES (X86)\MICROSOFT SDKS\WINDOWS\V7.0A\INCLUDE\RPCNTERR.H
C:\PROGRAM FILES (X86)\MICROSOFT SDKS\WINDOWS\V7.0A\INCLUDE\RPCASYNC.H
C:\PROGRAM FILES (X86)\MICROSOFT SDKS\WINDOWS\V7.0A\INCLUDE\SHELLAPI.H
C:\PROGRAM FILES (X86)\MICROSOFT SDKS\WINDOWS\V7.0A\INCLUDE\WINPERF.H
C:\PROGRAM FILES (X86)\MICROSOFT SDKS\WINDOWS\V7.0A\INCLUDE\WINSOCK.H
C:\PROGRAM FILES (X86)\MICROSOFT SDKS\WINDOWS\V7.0A\INCLUDE\INADDR.H
C:\PROGRAM FILES (X86)\MICROSOFT SDKS\WINDOWS\V7.0A\INCLUDE\WINCRYPT.H
C:\PROGRAM FILES (X86)\MICROSOFT SDKS\WINDOWS\V7.0A\INCLUDE\BCRYPT.H
C:\PROGRAM FILES (X86)\MICROSOFT SDKS\WINDOWS\V7.0A\INCLUDE\NCRYPT.H
C:\PROGRAM FILES (X86)\MICROSOFT SDKS\WINDOWS\V7.0A\INCLUDE\WINEFS.H
C:\PROGRAM FILES (X86)\MICROSOFT SDKS\WINDOWS\V7.0A\INCLUDE\WINSCARD.H
C:\PROGRAM FILES (X86)\MICROSOFT SDKS\WINDOWS\V7.0A\INCLUDE\WTYPES.H
C:\PROGRAM FILES (X86)\MICROSOFT SDKS\WINDOWS\V7.0A\INCLUDE\RPCNDR.H
C:\PROGRAM FILES (X86)\MICROSOFT SDKS\WINDOWS\V7.0A\INCLUDE\RPCNSIP.H
C:\PROGRAM FILES (X86)\MICROSOFT SDKS\WINDOWS\V7.0A\INCLUDE\RPCSAL.H
C:\PROGRAM FILES (X86)\MICROSOFT SDKS\WINDOWS\V7.0A\INCLUDE\WINIOCTL.H
C:\PROGRAM FILES (X86)\MICROSOFT SDKS\WINDOWS\V7.0A\INCLUDE\WINSMCRD.H
C:\PROGRAM FILES (X86)\MICROSOFT SDKS\WINDOWS\V7.0A\INCLUDE\WINSPOOL.H
C:\PROGRAM FILES (X86)\MICROSOFT SDKS\WINDOWS\V7.0A\INCLUDE\PRSHT.H
C:\PROGRAM FILES (X86)\MICROSOFT SDKS\WINDOWS\V7.0A\INCLUDE\OLE2.H
C:\PROGRAM FILES (X86)\MICROSOFT SDKS\WINDOWS\V7.0A\INCLUDE\OBJBASE.H
C:\_SOFTWAREROOTS\MICROSOFT VISUAL STUDIO 10.0\VC\INCLUDE\STDLIB.H
C:\_SOFTWAREROOTS\MICROSOFT VISUAL STUDIO 10.0\VC\INCLUDE\LIMITS.H
C:\PROGRAM FILES (X86)\MICROSOFT SDKS\WINDOWS\V7.0A\INCLUDE\UNKNWN.H
C:\PROGRAM FILES (X86)\MICROSOFT SDKS\WINDOWS\V7.0A\INCLUDE\OBJIDL.H
C:\PROGRAM FILES (X86)\MICROSOFT SDKS\WINDOWS\V7.0A\INCLUDE\CGUID.H
C:\PROGRAM FILES (X86)\MICROSOFT SDKS\WINDOWS\V7.0A\INCLUDE\URLMON.H
C:\PROGRAM FILES (X86)\MICROSOFT SDKS\WINDOWS\V7.0A\INCLUDE\OLEIDL.H
C:\PROGRAM FILES (X86)\MICROSOFT SDKS\WINDOWS\V7.0A\INCLUDE\SERVPROV.H
C:\PROGRAM FILES (X86)\MICROSOFT SDKS\WINDOWS\V7.0A\INCLUDE\MSXML.H
C:\PROGRAM FILES (X86)\MICROSOFT SDKS\WINDOWS\V7.0A\INCLUDE\OAIDL.H
C:\PROGRAM FILES (X86)\MICROSOFT SDKS\WINDOWS\V7.0A\INCLUDE\PROPIDL.H
C:\PROGRAM FILES (X86)\MICROSOFT SDKS\WINDOWS\V7.0A\INCLUDE\OLEAUTO.H
C:\PROGRAM FILES (X86)\MICROSOFT SDKS\WINDOWS\V7.0A\INCLUDE\COMMDLG.H
C:\PROGRAM FILES (X86)\MICROSOFT SDKS\WINDOWS\V7.0A\INCLUDE\STRALIGN.H
C:\PROGRAM FILES (X86)\MICROSOFT SDKS\WINDOWS\V7.0A\INCLUDE\WINSVC.H
C:\PROGRAM FILES (X86)\MICROSOFT SDKS\WINDOWS\V7.0A\INCLUDE\MCX.H
C:\PROGRAM FILES (X86)\MICROSOFT SDKS\WINDOWS\V7.0A\INCLUDE\IMM.H
C:\PROGRAM FILES (X86)\MICROSOFT SDKS\WINDOWS\V7.0A\INCLUDE\IME_CMODES.H
C:\_SOFTWAREROOTS\MICROSOFT VISUAL STUDIO 10.0\VC\INCLUDE\STDIO.H
C:\_SOFTWAREROOTS\MICROSOFT VISUAL STUDIO 10.0\VC\INCLUDE\SWPRINTF.INL
C:\_SOFTWAREROOTS\MICROSOFT VISUAL STUDIO 10.0\VC\INCLUDE\MATH.H
C:\_DOCUMENTS\_DOCUMENTS\_3DRENDERING\PROJECT\CHINESEPAINTINGMAIN\CHINESE_PAINTING\SHADER.HPP
C:\_DOCUMENTS\_DOCUMENTS\_3DRENDERING\PROJECT\CHINESEPAINTINGMAIN\CHINESE_PAINTING\GLEW\GLEW.H
C:\PROGRAM FILES (X86)\MICROSOFT SDKS\WINDOWS\V7.0A\INCLUDE\GL\GLU.H
C:\PROGRAM FILES (X86)\MICROSOFT SDKS\WINDOWS\V7.0A\INCLUDE\GL\GL.H
C:\_DOCUMENTS\_DOCUMENTS\_3DRENDERING\PROJECT\CHINESEPAINTINGMAIN\CHINESE_PAINTING\GLUT\GLUT.H
C:\_DOCUMENTS\_DOCUMENTS\_3DRENDERING\PROJECT\CHINESEPAINTINGMAIN\CHINESE_PAINTING\GLM\GLM.HPP
C:\_DOCUMENTS\_DOCUMENTS\_3DRENDERING\PROJECT\CHINESEPAINTINGMAIN\CHINESE_PAINTING\GLM\CORE\_FIXES.HPP
C:\_SOFTWAREROOTS\MICROSOFT VISUAL STUDIO 10.0\VC\INCLUDE\CMATH
C:\_SOFTWAREROOTS\MICROSOFT VISUAL STUDIO 10.0\VC\INCLUDE\YVALS.H
C:\_SOFTWAREROOTS\MICROSOFT VISUAL STUDIO 10.0\VC\INCLUDE\USE_ANSI.H
C:\_SOFTWAREROOTS\MICROSOFT VISUAL STUDIO 10.0\VC\INCLUDE\CLIMITS
C:\_SOFTWAREROOTS\MICROSOFT VISUAL STUDIO 10.0\VC\INCLUDE\CFLOAT
C:\_SOFTWAREROOTS\MICROSOFT VISUAL STUDIO 10.0\VC\INCLUDE\FLOAT.H
C:\_SOFTWAREROOTS\MICROSOFT VISUAL STUDIO 10.0\VC\INCLUDE\CRTWRN.H
C:\_SOFTWAREROOTS\MICROSOFT VISUAL STUDIO 10.0\VC\INCLUDE\LIMITS
C:\_SOFTWAREROOTS\MICROSOFT VISUAL STUDIO 10.0\VC\INCLUDE\YMATH.H
C:\_SOFTWAREROOTS\MICROSOFT VISUAL STUDIO 10.0\VC\INCLUDE\CWCHAR
C:\_SOFTWAREROOTS\MICROSOFT VISUAL STUDIO 10.0\VC\INCLUDE\WCHAR.H
C:\_SOFTWAREROOTS\MICROSOFT VISUAL STUDIO 10.0\VC\INCLUDE\WTIME.INL
C:\_SOFTWAREROOTS\MICROSOFT VISUAL STUDIO 10.0\VC\INCLUDE\XSTDDEF
C:\_SOFTWAREROOTS\MICROSOFT VISUAL STUDIO 10.0\VC\INCLUDE\CSTDDEF
C:\_SOFTWAREROOTS\MICROSOFT VISUAL STUDIO 10.0\VC\INCLUDE\STDDEF.H
C:\_SOFTWAREROOTS\MICROSOFT VISUAL STUDIO 10.0\VC\INCLUDE\CSTDIO
C:\_DOCUMENTS\_DOCUMENTS\_3DRENDERING\PROJECT\CHINESEPAINTINGMAIN\CHINESE_PAINTING\GLM\CORE\SETUP.HPP
C:\_SOFTWAREROOTS\MICROSOFT VISUAL STUDIO 10.0\VC\INCLUDE\IMMINTRIN.H
C:\_SOFTWAREROOTS\MICROSOFT VISUAL STUDIO 10.0\VC\INCLUDE\WMMINTRIN.H
C:\_SOFTWAREROOTS\MICROSOFT VISUAL STUDIO 10.0\VC\INCLUDE\NMMINTRIN.H
C:\_SOFTWAREROOTS\MICROSOFT VISUAL STUDIO 10.0\VC\INCLUDE\SMMINTRIN.H
C:\_SOFTWAREROOTS\MICROSOFT VISUAL STUDIO 10.0\VC\INCLUDE\TMMINTRIN.H
C:\_SOFTWAREROOTS\MICROSOFT VISUAL STUDIO 10.0\VC\INCLUDE\PMMINTRIN.H
C:\_SOFTWAREROOTS\MICROSOFT VISUAL STUDIO 10.0\VC\INCLUDE\EMMINTRIN.H
C:\_SOFTWAREROOTS\MICROSOFT VISUAL STUDIO 10.0\VC\INCLUDE\XMMINTRIN.H
C:\_SOFTWAREROOTS\MICROSOFT VISUAL STUDIO 10.0\VC\INCLUDE\MMINTRIN.H
C:\_SOFTWAREROOTS\MICROSOFT VISUAL STUDIO 10.0\VC\INCLUDE\MALLOC.H
C:\_DOCUMENTS\_DOCUMENTS\_3DRENDERING\PROJECT\CHINESEPAINTINGMAIN\CHINESE_PAINTING\GLM\CORE\_DETAIL.HPP
C:\_SOFTWAREROOTS\MICROSOFT VISUAL STUDIO 10.0\VC\INCLUDE\CASSERT
C:\_SOFTWAREROOTS\MICROSOFT VISUAL STUDIO 10.0\VC\INCLUDE\ASSERT.H
C:\_DOCUMENTS\_DOCUMENTS\_3DRENDERING\PROJECT\CHINESEPAINTINGMAIN\CHINESE_PAINTING\GLM\CORE\_VECTORIZE.HPP
C:\_DOCUMENTS\_DOCUMENTS\_3DRENDERING\PROJECT\CHINESEPAINTINGMAIN\CHINESE_PAINTING\GLM\CORE\TYPE.HPP
C:\_DOCUMENTS\_DOCUMENTS\_3DRENDERING\PROJECT\CHINESEPAINTINGMAIN\CHINESE_PAINTING\GLM\CORE\TYPE_HALF.HPP
C:\_SOFTWAREROOTS\MICROSOFT VISUAL STUDIO 10.0\VC\INCLUDE\CSTDLIB
C:\_DOCUMENTS\_DOCUMENTS\_3DRENDERING\PROJECT\CHINESEPAINTINGMAIN\CHINESE_PAINTING\GLM\CORE\TYPE_HALF.INL
C:\_DOCUMENTS\_DOCUMENTS\_3DRENDERING\PROJECT\CHINESEPAINTINGMAIN\CHINESE_PAINTING\GLM\CORE\TYPE_FLOAT.HPP
C:\_DOCUMENTS\_DOCUMENTS\_3DRENDERING\PROJECT\CHINESEPAINTINGMAIN\CHINESE_PAINTING\GLM\CORE\TYPE_INT.HPP
C:\_DOCUMENTS\_DOCUMENTS\_3DRENDERING\PROJECT\CHINESEPAINTINGMAIN\CHINESE_PAINTING\GLM\CORE\TYPE_GENTYPE.HPP
C:\_DOCUMENTS\_DOCUMENTS\_3DRENDERING\PROJECT\CHINESEPAINTINGMAIN\CHINESE_PAINTING\GLM\CORE\TYPE_SIZE.HPP
C:\_DOCUMENTS\_DOCUMENTS\_3DRENDERING\PROJECT\CHINESEPAINTINGMAIN\CHINESE_PAINTING\GLM\CORE\TYPE_VEC1.HPP
C:\_DOCUMENTS\_DOCUMENTS\_3DRENDERING\PROJECT\CHINESEPAINTINGMAIN\CHINESE_PAINTING\GLM\CORE\TYPE_VEC.HPP
C:\_DOCUMENTS\_DOCUMENTS\_3DRENDERING\PROJECT\CHINESEPAINTINGMAIN\CHINESE_PAINTING\GLM\CORE\_SWIZZLE.HPP
C:\_DOCUMENTS\_DOCUMENTS\_3DRENDERING\PROJECT\CHINESEPAINTINGMAIN\CHINESE_PAINTING\GLM\CORE\_SWIZZLE_FUNC.HPP
C:\_DOCUMENTS\_DOCUMENTS\_3DRENDERING\PROJECT\CHINESEPAINTINGMAIN\CHINESE_PAINTING\GLM\CORE\TYPE_VEC1.INL
C:\_DOCUMENTS\_DOCUMENTS\_3DRENDERING\PROJECT\CHINESEPAINTINGMAIN\CHINESE_PAINTING\GLM\CORE\TYPE_VEC2.HPP
C:\_DOCUMENTS\_DOCUMENTS\_3DRENDERING\PROJECT\CHINESEPAINTINGMAIN\CHINESE_PAINTING\GLM\CORE\TYPE_VEC2.INL
C:\_DOCUMENTS\_DOCUMENTS\_3DRENDERING\PROJECT\CHINESEPAINTINGMAIN\CHINESE_PAINTING\GLM\CORE\TYPE_VEC3.HPP
C:\_DOCUMENTS\_DOCUMENTS\_3DRENDERING\PROJECT\CHINESEPAINTINGMAIN\CHINESE_PAINTING\GLM\CORE\TYPE_VEC3.INL
C:\_DOCUMENTS\_DOCUMENTS\_3DRENDERING\PROJECT\CHINESEPAINTINGMAIN\CHINESE_PAINTING\GLM\CORE\TYPE_VEC4.HPP
C:\_DOCUMENTS\_DOCUMENTS\_3DRENDERING\PROJECT\CHINESEPAINTINGMAIN\CHINESE_PAINTING\GLM\CORE\TYPE_VEC4.INL
C:\_DOCUMENTS\_DOCUMENTS\_3DRENDERING\PROJECT\CHINESEPAINTINGMAIN\CHINESE_PAINTING\GLM\CORE\TYPE_MAT2X2.HPP
C:\_DOCUMENTS\_DOCUMENTS\_3DRENDERING\PROJECT\CHINESEPAINTINGMAIN\CHINESE_PAINTING\GLM\CORE\TYPE_MAT.HPP
C:\_DOCUMENTS\_DOCUMENTS\_3DRENDERING\PROJECT\CHINESEPAINTINGMAIN\CHINESE_PAINTING\GLM\CORE\TYPE_MAT2X2.INL
C:\_DOCUMENTS\_DOCUMENTS\_3DRENDERING\PROJECT\CHINESEPAINTINGMAIN\CHINESE_PAINTING\GLM\CORE\TYPE_MAT2X3.HPP
C:\_DOCUMENTS\_DOCUMENTS\_3DRENDERING\PROJECT\CHINESEPAINTINGMAIN\CHINESE_PAINTING\GLM\CORE\TYPE_MAT2X3.INL
C:\_DOCUMENTS\_DOCUMENTS\_3DRENDERING\PROJECT\CHINESEPAINTINGMAIN\CHINESE_PAINTING\GLM\CORE\TYPE_MAT2X4.HPP
C:\_DOCUMENTS\_DOCUMENTS\_3DRENDERING\PROJECT\CHINESEPAINTINGMAIN\CHINESE_PAINTING\GLM\CORE\TYPE_MAT2X4.INL
C:\_DOCUMENTS\_DOCUMENTS\_3DRENDERING\PROJECT\CHINESEPAINTINGMAIN\CHINESE_PAINTING\GLM\CORE\TYPE_MAT3X2.HPP
C:\_DOCUMENTS\_DOCUMENTS\_3DRENDERING\PROJECT\CHINESEPAINTINGMAIN\CHINESE_PAINTING\GLM\CORE\TYPE_MAT3X2.INL
C:\_DOCUMENTS\_DOCUMENTS\_3DRENDERING\PROJECT\CHINESEPAINTINGMAIN\CHINESE_PAINTING\GLM\CORE\TYPE_MAT3X3.HPP
C:\_DOCUMENTS\_DOCUMENTS\_3DRENDERING\PROJECT\CHINESEPAINTINGMAIN\CHINESE_PAINTING\GLM\CORE\TYPE_MAT3X3.INL
C:\_DOCUMENTS\_DOCUMENTS\_3DRENDERING\PROJECT\CHINESEPAINTINGMAIN\CHINESE_PAINTING\GLM\CORE\TYPE_MAT3X4.HPP
C:\_DOCUMENTS\_DOCUMENTS\_3DRENDERING\PROJECT\CHINESEPAINTINGMAIN\CHINESE_PAINTING\GLM\CORE\TYPE_MAT3X4.INL
C:\_DOCUMENTS\_DOCUMENTS\_3DRENDERING\PROJECT\CHINESEPAINTINGMAIN\CHINESE_PAINTING\GLM\CORE\TYPE_MAT4X2.HPP
C:\_DOCUMENTS\_DOCUMENTS\_3DRENDERING\PROJECT\CHINESEPAINTINGMAIN\CHINESE_PAINTING\GLM\CORE\TYPE_MAT4X2.INL
C:\_DOCUMENTS\_DOCUMENTS\_3DRENDERING\PROJECT\CHINESEPAINTINGMAIN\CHINESE_PAINTING\GLM\CORE\TYPE_MAT4X3.HPP
C:\_DOCUMENTS\_DOCUMENTS\_3DRENDERING\PROJECT\CHINESEPAINTINGMAIN\CHINESE_PAINTING\GLM\CORE\TYPE_MAT4X3.INL
C:\_DOCUMENTS\_DOCUMENTS\_3DRENDERING\PROJECT\CHINESEPAINTINGMAIN\CHINESE_PAINTING\GLM\CORE\TYPE_MAT4X4.HPP
C:\_DOCUMENTS\_DOCUMENTS\_3DRENDERING\PROJECT\CHINESEPAINTINGMAIN\CHINESE_PAINTING\GLM\CORE\TYPE_MAT4X4.INL
C:\_DOCUMENTS\_DOCUMENTS\_3DRENDERING\PROJECT\CHINESEPAINTINGMAIN\CHINESE_PAINTING\GLM\CORE\FUNC_TRIGONOMETRIC.HPP
C:\_DOCUMENTS\_DOCUMENTS\_3DRENDERING\PROJECT\CHINESEPAINTINGMAIN\CHINESE_PAINTING\GLM\CORE\FUNC_TRIGONOMETRIC.INL
C:\_DOCUMENTS\_DOCUMENTS\_3DRENDERING\PROJECT\CHINESEPAINTINGMAIN\CHINESE_PAINTING\GLM\CORE\FUNC_EXPONENTIAL.HPP
C:\_DOCUMENTS\_DOCUMENTS\_3DRENDERING\PROJECT\CHINESEPAINTINGMAIN\CHINESE_PAINTING\GLM\CORE\FUNC_EXPONENTIAL.INL
C:\_DOCUMENTS\_DOCUMENTS\_3DRENDERING\PROJECT\CHINESEPAINTINGMAIN\CHINESE_PAINTING\GLM\CORE\FUNC_COMMON.HPP
C:\_DOCUMENTS\_DOCUMENTS\_3DRENDERING\PROJECT\CHINESEPAINTINGMAIN\CHINESE_PAINTING\GLM\CORE\FUNC_COMMON.INL
C:\_DOCUMENTS\_DOCUMENTS\_3DRENDERING\PROJECT\CHINESEPAINTINGMAIN\CHINESE_PAINTING\GLM\CORE\FUNC_PACKING.HPP
C:\_DOCUMENTS\_DOCUMENTS\_3DRENDERING\PROJECT\CHINESEPAINTINGMAIN\CHINESE_PAINTING\GLM\CORE\FUNC_PACKING.INL
C:\_DOCUMENTS\_DOCUMENTS\_3DRENDERING\PROJECT\CHINESEPAINTINGMAIN\CHINESE_PAINTING\GLM\CORE\FUNC_GEOMETRIC.HPP
C:\_DOCUMENTS\_DOCUMENTS\_3DRENDERING\PROJECT\CHINESEPAINTINGMAIN\CHINESE_PAINTING\GLM\CORE\FUNC_GEOMETRIC.INL
C:\_DOCUMENTS\_DOCUMENTS\_3DRENDERING\PROJECT\CHINESEPAINTINGMAIN\CHINESE_PAINTING\GLM\CORE\FUNC_MATRIX.HPP
C:\_DOCUMENTS\_DOCUMENTS\_3DRENDERING\PROJECT\CHINESEPAINTINGMAIN\CHINESE_PAINTING\GLM\CORE\FUNC_MATRIX.INL
C:\_DOCUMENTS\_DOCUMENTS\_3DRENDERING\PROJECT\CHINESEPAINTINGMAIN\CHINESE_PAINTING\GLM\CORE\FUNC_VECTOR_RELATIONAL.HPP
C:\_DOCUMENTS\_DOCUMENTS\_3DRENDERING\PROJECT\CHINESEPAINTINGMAIN\CHINESE_PAINTING\GLM\CORE\FUNC_VECTOR_RELATIONAL.INL
C:\_DOCUMENTS\_DOCUMENTS\_3DRENDERING\PROJECT\CHINESEPAINTINGMAIN\CHINESE_PAINTING\GLM\CORE\FUNC_INTEGER.HPP
C:\_DOCUMENTS\_DOCUMENTS\_3DRENDERING\PROJECT\CHINESEPAINTINGMAIN\CHINESE_PAINTING\GLM\CORE\FUNC_INTEGER.INL
C:\_SOFTWAREROOTS\MICROSOFT VISUAL STUDIO 10.0\VC\INCLUDE\INTRIN.H
C:\_SOFTWAREROOTS\MICROSOFT VISUAL STUDIO 10.0\VC\INCLUDE\SETJMP.H
C:\_SOFTWAREROOTS\MICROSOFT VISUAL STUDIO 10.0\VC\INCLUDE\AMMINTRIN.H
C:\_SOFTWAREROOTS\MICROSOFT VISUAL STUDIO 10.0\VC\INCLUDE\MM3DNOW.H
C:\_DOCUMENTS\_DOCUMENTS\_3DRENDERING\PROJECT\CHINESEPAINTINGMAIN\CHINESE_PAINTING\GLM\CORE\FUNC_NOISE.HPP
C:\_DOCUMENTS\_DOCUMENTS\_3DRENDERING\PROJECT\CHINESEPAINTINGMAIN\CHINESE_PAINTING\GLM\CORE\FUNC_NOISE.INL
C:\_DOCUMENTS\_DOCUMENTS\_3DRENDERING\PROJECT\CHINESEPAINTINGMAIN\CHINESE_PAINTING\GLM\GTC\MATRIX_TRANSFORM.HPP
C:\_DOCUMENTS\_DOCUMENTS\_3DRENDERING\PROJECT\CHINESEPAINTINGMAIN\CHINESE_PAINTING\GLM\GTC\MATRIX_TRANSFORM.INL
C:\_DOCUMENTS\_DOCUMENTS\_3DRENDERING\PROJECT\CHINESEPAINTINGMAIN\CHINESE_PAINTING\INPUT.H
C:\_DOCUMENTS\_DOCUMENTS\_3DRENDERING\PROJECT\CHINESEPAINTINGMAIN\CHINESE_PAINTING\MESHIO.H
C:\_DOCUMENTS\_DOCUMENTS\_3DRENDERING\PROJECT\CHINESEPAINTINGMAIN\CHINESE_PAINTING\MESH.H
C:\_DOCUMENTS\_DOCUMENTS\_3DRENDERING\PROJECT\CHINESEPAINTINGMAIN\CHINESE_PAINTING\PLY.H
C:\_DOCUMENTS\_DOCUMENTS\_3DRENDERING\PROJECT\CHINESEPAINTINGMAIN\CHINESE_PAINTING\TEXTUREIO.H
C:\_DOCUMENTS\_DOCUMENTS\_3DRENDERING\PROJECT\CHINESEPAINTINGMAIN\CHINESE_PAINTING\GLEW\WGLEW.H
C:\_SOFTWAREROOTS\MICROSOFT VISUAL STUDIO 10.0\VC\BIN\1033\CLUI.DLL
C:\WINDOWS\GLOBALIZATION\SORTING\SORTDEFAULT.NLS
C:\WINDOWS\SYSTEM32\RSAENH.DLL
C:\WINDOWS\SYSTEM32\TZRES.DLL
C:\_SOFTWAREROOTS\MICROSOFT VISUAL STUDIO 10.0\COMMON7\IDE\MSPDBSRV.EXE
^C:\_DOCUMENTS\_DOCUMENTS\_3DRENDERING\PROJECT\CHINESEPAINTINGMAIN\CHINESE_PAINTING\PLY.C
C:\_SOFTWAREROOTS\MICROSOFT VISUAL STUDIO 10.0\VC\BIN\1033\CLUI.DLL
C:\WINDOWS\GLOBALIZATION\SORTING\SORTDEFAULT.NLS
C:\WINDOWS\SYSTEM32\RSAENH.DLL
C:\WINDOWS\SYSTEM32\TZRES.DLL
C:\_SOFTWAREROOTS\MICROSOFT VISUAL STUDIO 10.0\VC\INCLUDE\STDIO.H
C:\_SOFTWAREROOTS\MICROSOFT VISUAL STUDIO 10.0\VC\INCLUDE\CRTDEFS.H
C:\_SOFTWAREROOTS\MICROSOFT VISUAL STUDIO 10.0\VC\INCLUDE\SAL.H
C:\_SOFTWAREROOTS\MICROSOFT VISUAL STUDIO 10.0\VC\INCLUDE\CODEANALYSIS\SOURCEANNOTATIONS.H
C:\_SOFTWAREROOTS\MICROSOFT VISUAL STUDIO 10.0\VC\INCLUDE\VADEFS.H
C:\_SOFTWAREROOTS\MICROSOFT VISUAL STUDIO 10.0\VC\INCLUDE\SWPRINTF.INL
C:\_SOFTWAREROOTS\MICROSOFT VISUAL STUDIO 10.0\VC\INCLUDE\STDLIB.H
C:\_SOFTWAREROOTS\MICROSOFT VISUAL STUDIO 10.0\VC\INCLUDE\LIMITS.H
C:\_SOFTWAREROOTS\MICROSOFT VISUAL STUDIO 10.0\VC\INCLUDE\MATH.H
C:\_SOFTWAREROOTS\MICROSOFT VISUAL STUDIO 10.0\VC\INCLUDE\STRING.H
C:\_DOCUMENTS\_DOCUMENTS\_3DRENDERING\PROJECT\CHINESEPAINTINGMAIN\CHINESE_PAINTING\PLY.H
C:\_SOFTWAREROOTS\MICROSOFT VISUAL STUDIO 10.0\VC\INCLUDE\STDDEF.H
