^D:\USC_STUDY\CSCI580_3D_GRAPHICS_RENDERING\CHINESEPAINTINGMAIN\CHINESEPAINTINGMAIN\CHINESE_PAINTING\DEBUG\CHINESE_PAINTING.OBJ|D:\USC_STUDY\CSCI580_3D_GRAPHICS_RENDERING\CHINESEPAINTINGMAIN\CHINESEPAINTINGMAIN\CHINESE_PAINTING\DEBUG\INPUT.OBJ|D:\USC_STUDY\CSCI580_3D_GRAPHICS_RENDERING\CHINESEPAINTINGMAIN\CHINESEPAINTINGMAIN\CHINESE_PAINTING\DEBUG\MESH.OBJ|D:\USC_STUDY\CSCI580_3D_GRAPHICS_RENDERING\CHINESEPAINTINGMAIN\CHINESEPAINTINGMAIN\CHINESE_PAINTING\DEBUG\PLY.OBJ|D:\USC_STUDY\CSCI580_3D_GRAPHICS_RENDERING\CHINESEPAINTINGMAIN\CHINESEPAINTINGMAIN\CHINESE_PAINTING\DEBUG\SHADER.OBJ|D:\USC_STUDY\CSCI580_3D_GRAPHICS_RENDERING\CHINESEPAINTINGMAIN\CHINESEPAINTINGMAIN\CHINESE_PAINTING\DEBUG\TEXTUREIO.OBJ
D:\USC_STUDY\CSCI580_3D_GRAPHICS_RENDERING\CHINESEPAINTINGMAIN\CHINESEPAINTINGMAIN\DEBUG\CHINESE_PAINTING.ILK
D:\USC_STUDY\CSCI580_3D_GRAPHICS_RENDERING\CHINESEPAINTINGMAIN\CHINESEPAINTINGMAIN\DEBUG\CHINESE_PAINTING.EXE
D:\USC_STUDY\CSCI580_3D_GRAPHICS_RENDERING\CHINESEPAINTINGMAIN\CHINESEPAINTINGMAIN\CHINESE_PAINTING\DEBUG\CHINESE_PAINTING.EXE.INTERMEDIATE.MANIFEST
D:\USC_STUDY\CSCI580_3D_GRAPHICS_RENDERING\CHINESEPAINTINGMAIN\CHINESEPAINTINGMAIN\DEBUG\CHINESE_PAINTING.PDB
^C:\_DOCUMENTS\_DOCUMENTS\_3DRENDERING\PROJECT\CHINESEPAINTINGMAIN\CHINESE_PAINTING\DEBUG\CHINESE_PAINTING.OBJ|C:\_DOCUMENTS\_DOCUMENTS\_3DRENDERING\PROJECT\CHINESEPAINTINGMAIN\CHINESE_PAINTING\DEBUG\INPUT.OBJ|C:\_DOCUMENTS\_DOCUMENTS\_3DRENDERING\PROJECT\CHINESEPAINTINGMAIN\CHINESE_PAINTING\DEBUG\MESH.OBJ|C:\_DOCUMENTS\_DOCUMENTS\_3DRENDERING\PROJECT\CHINESEPAINTINGMAIN\CHINESE_PAINTING\DEBUG\PLY.OBJ|C:\_DOCUMENTS\_DOCUMENTS\_3DRENDERING\PROJECT\CHINESEPAINTINGMAIN\CHINESE_PAINTING\DEBUG\SHADER.OBJ|C:\_DOCUMENTS\_DOCUMENTS\_3DRENDERING\PROJECT\CHINESEPAINTINGMAIN\CHINESE_PAINTING\DEBUG\TEXTUREIO.OBJ
C:\_DOCUMENTS\_DOCUMENTS\_3DRENDERING\PROJECT\CHINESEPAINTINGMAIN\DEBUG\CHINESE_PAINTING.ILK
C:\_DOCUMENTS\_DOCUMENTS\_3DRENDERING\PROJECT\CHINESEPAINTINGMAIN\DEBUG\CHINESE_PAINTING.EXE
C:\_DOCUMENTS\_DOCUMENTS\_3DRENDERING\PROJECT\CHINESEPAINTINGMAIN\CHINESE_PAINTING\DEBUG\CHINESE_PAINTING.EXE.INTERMEDIATE.MANIFEST
C:\_DOCUMENTS\_DOCUMENTS\_3DRENDERING\PROJECT\CHINESEPAINTINGMAIN\DEBUG\CHINESE_PAINTING.PDB
