^D:\PROJECTS\CHINESEPAINTINGMAIN\CHINESE_PAINTING\DEBUG\CHINESE_PAINTING.EXE.INTERMEDIATE.MANIFEST
/nologo /verbose /outputresource:"D:\Projects\ChinesePaintingMain\Debug\Chinese_Painting.exe;#1" /manifest Debug\Chinese_Painting.exe.intermediate.manifest
^D:\USC_STUDY\CSCI580_3D_GRAPHICS_RENDERING\CHINESEPAINTINGMAIN\CHINESEPAINTINGMAIN\CHINESE_PAINTING\DEBUG\CHINESE_PAINTING.EXE.INTERMEDIATE.MANIFEST
/nologo /verbose /outputresource:"D:\USC_Study\CSCI580_3D_Graphics_Rendering\ChinesePaintingMain\ChinesePaintingMain\Debug\Chinese_Painting.exe;#1" /manifest Debug\Chinese_Painting.exe.intermediate.manifest
^C:\_DOCUMENTS\_DOCUMENTS\_3DRENDERING\PROJECT\CHINESEPAINTINGMAIN\CHINESE_PAINTING\DEBUG\CHINESE_PAINTING.EXE.INTERMEDIATE.MANIFEST
/nologo /verbose /outputresource:"C:\_Documents\_Documents\_3DRendering\Project\ChinesePaintingMain\Debug\Chinese_Painting.exe;#1" /manifest Debug\Chinese_Painting.exe.intermediate.manifest
