^D:\USC_STUDY\CSCI580_3D_GRAPHICS_RENDERING\CHINESEPAINTINGMAIN\CHINESEPAINTINGMAIN\CHINESE_PAINTING\DEBUG\CHINESE_PAINTING.EXE.INTERMEDIATE.MANIFEST
D:\USC_STUDY\CSCI580_3D_GRAPHICS_RENDERING\CHINESEPAINTINGMAIN\CHINESEPAINTINGMAIN\DEBUG\CHINESE_PAINTING.EXE
^C:\_DOCUMENTS\_DOCUMENTS\_3DRENDERING\PROJECT\CHINESEPAINTINGMAIN\CHINESE_PAINTING\DEBUG\CHINESE_PAINTING.EXE.INTERMEDIATE.MANIFEST
C:\_DOCUMENTS\_DOCUMENTS\_3DRENDERING\PROJECT\CHINESEPAINTINGMAIN\DEBUG\CHINESE_PAINTING.EXE
